-- Merging decision tree log ---
manifest
ADDED from C:\Users\DELL\Desktop\RN\Agora\android\app\src\main\AndroidManifest.xml:1:1-28:12
INJECTED from C:\Users\DELL\Desktop\RN\Agora\android\app\src\main\AndroidManifest.xml:1:1-28:12
INJECTED from C:\Users\DELL\Desktop\RN\Agora\android\app\src\main\AndroidManifest.xml:1:1-28:12
INJECTED from C:\Users\DELL\Desktop\RN\Agora\android\app\src\main\AndroidManifest.xml:1:1-28:12
MERGED from C:\Users\DELL\Desktop\RN\Agora\android\app\src\main\AndroidManifest.xml:1:1-28:12
MERGED from [com.facebook.flipper:flipper:0.33.1] C:\Users\DELL\.gradle\caches\transforms-2\files-2.1\c8a1045385932b1ad9ab11a30d0e1a14\jetified-flipper-0.33.1\AndroidManifest.xml:8:1-18:12
MERGED from [com.facebook.flipper:flipper-network-plugin:0.33.1] C:\Users\DELL\.gradle\caches\transforms-2\files-2.1\fa9d249d56579007dba70f8ee4dd5b3f\flipper-network-plugin-0.33.1\AndroidManifest.xml:8:1-15:12
MERGED from [com.facebook.flipper:flipper-fresco-plugin:0.33.1] C:\Users\DELL\.gradle\caches\transforms-2\files-2.1\5a1065d4748ae359265a740b2069d44b\flipper-fresco-plugin-0.33.1\AndroidManifest.xml:8:1-15:12
MERGED from [:unimodules-react-native-adapter] C:\Users\DELL\Desktop\RN\Agora\node_modules\@unimodules\react-native-adapter\android\build\intermediates\library_manifest\debug\AndroidManifest.xml:2:1-17:12
MERGED from [:react-native-community_async-storage] C:\Users\DELL\Desktop\RN\Agora\node_modules\@react-native-community\async-storage\android\build\intermediates\library_manifest\debug\AndroidManifest.xml:2:1-9:12
MERGED from [:react-native-community_masked-view] C:\Users\DELL\Desktop\RN\Agora\node_modules\@react-native-community\masked-view\android\build\intermediates\library_manifest\debug\AndroidManifest.xml:2:1-9:12
MERGED from [:react-native-gesture-handler] C:\Users\DELL\Desktop\RN\Agora\node_modules\react-native-gesture-handler\android\build\intermediates\library_manifest\debug\AndroidManifest.xml:2:1-11:12
MERGED from [:react-native-reanimated] C:\Users\DELL\Desktop\RN\Agora\node_modules\react-native-reanimated\android\build\intermediates\library_manifest\debug\AndroidManifest.xml:2:1-11:12
MERGED from [:react-native-safe-area-context] C:\Users\DELL\Desktop\RN\Agora\node_modules\react-native-safe-area-context\android\build\intermediates\library_manifest\debug\AndroidManifest.xml:2:1-9:12
MERGED from [:react-native-screens] C:\Users\DELL\Desktop\RN\Agora\node_modules\react-native-screens\android\build\intermediates\library_manifest\debug\AndroidManifest.xml:2:1-11:12
MERGED from [:react-native-vector-icons] C:\Users\DELL\Desktop\RN\Agora\node_modules\react-native-vector-icons\android\build\intermediates\library_manifest\debug\AndroidManifest.xml:2:1-11:12
MERGED from [com.facebook.react:react-native:0.62.2] C:\Users\DELL\.gradle\caches\transforms-2\files-2.1\247881c5ebaa71b8549e24fcc7f4ed36\jetified-react-native-0.62.2\AndroidManifest.xml:2:1-13:12
MERGED from [:expo-file-system] C:\Users\DELL\Desktop\RN\Agora\node_modules\expo-file-system\android\build\intermediates\library_manifest\debug\AndroidManifest.xml:2:1-30:12
MERGED from [:expo-location] C:\Users\DELL\Desktop\RN\Agora\node_modules\expo-location\android\build\intermediates\library_manifest\debug\AndroidManifest.xml:2:1-21:12
MERGED from [com.google.android.gms:play-services-location:16.0.0] C:\Users\DELL\.gradle\caches\transforms-2\files-2.1\ce7a1b1aa3a6ed61751d67671f1264d5\jetified-play-services-location-16.0.0\AndroidManifest.xml:2:1-9:12
MERGED from [com.google.android.gms:play-services-base:16.0.1] C:\Users\DELL\.gradle\caches\transforms-2\files-2.1\044d4383dc468efe572c879d3116c3d4\jetified-play-services-base-16.0.1\AndroidManifest.xml:17:1-29:12
MERGED from [com.google.android.gms:play-services-places-placereport:16.0.0] C:\Users\DELL\.gradle\caches\transforms-2\files-2.1\9319cbef6611937437246d14ffa15944\play-services-places-placereport-16.0.0\AndroidManifest.xml:17:1-24:12
MERGED from [com.google.android.gms:play-services-tasks:16.0.1] C:\Users\DELL\.gradle\caches\transforms-2\files-2.1\ef0d2aef256d0c6f954aedf0608c9a30\jetified-play-services-tasks-16.0.1\AndroidManifest.xml:2:1-9:12
MERGED from [com.google.android.gms:play-services-basement:16.0.1] C:\Users\DELL\.gradle\caches\transforms-2\files-2.1\49fb9a90647d7a5a8ff80d13dba19a73\jetified-play-services-basement-16.0.1\AndroidManifest.xml:17:1-28:12
MERGED from [androidx.legacy:legacy-support-v4:1.0.0] C:\Users\DELL\.gradle\caches\transforms-2\files-2.1\a430ff083c3ccb9e6346144a5dd2ced9\legacy-support-v4-1.0.0\AndroidManifest.xml:17:1-22:12
MERGED from [androidx.legacy:legacy-support-core-ui:1.0.0] C:\Users\DELL\.gradle\caches\transforms-2\files-2.1\a0cc55542e7f80901507e4e652970d1e\legacy-support-core-ui-1.0.0\AndroidManifest.xml:17:1-22:12
MERGED from [androidx.swiperefreshlayout:swiperefreshlayout:1.0.0] C:\Users\DELL\.gradle\caches\transforms-2\files-2.1\055a171d10c43231a2795117ecd4c3fd\swiperefreshlayout-1.0.0\AndroidManifest.xml:17:1-22:12
MERGED from [:expo-app-loader-provider] C:\Users\DELL\Desktop\RN\Agora\node_modules\expo-app-loader-provider\android\build\intermediates\library_manifest\debug\AndroidManifest.xml:2:1-11:12
MERGED from [:expo-constants] C:\Users\DELL\Desktop\RN\Agora\node_modules\expo-constants\android\build\intermediates\library_manifest\debug\AndroidManifest.xml:2:1-11:12
MERGED from [:expo-error-recovery] C:\Users\DELL\Desktop\RN\Agora\node_modules\expo-error-recovery\android\build\intermediates\library_manifest\debug\AndroidManifest.xml:2:1-11:12
MERGED from [:expo-font] C:\Users\DELL\Desktop\RN\Agora\node_modules\expo-font\android\build\intermediates\library_manifest\debug\AndroidManifest.xml:2:1-11:12
MERGED from [:expo-keep-awake] C:\Users\DELL\Desktop\RN\Agora\node_modules\expo-keep-awake\android\build\intermediates\library_manifest\debug\AndroidManifest.xml:2:1-11:12
MERGED from [:expo-linear-gradient] C:\Users\DELL\Desktop\RN\Agora\node_modules\expo-linear-gradient\android\build\intermediates\library_manifest\debug\AndroidManifest.xml:2:1-11:12
MERGED from [:expo-permissions] C:\Users\DELL\Desktop\RN\Agora\node_modules\expo-permissions\android\build\intermediates\library_manifest\debug\AndroidManifest.xml:2:1-11:12
MERGED from [:expo-splash-screen] C:\Users\DELL\Desktop\RN\Agora\node_modules\expo-splash-screen\android\build\intermediates\library_manifest\debug\AndroidManifest.xml:2:1-11:12
MERGED from [:expo-sqlite] C:\Users\DELL\Desktop\RN\Agora\node_modules\expo-sqlite\android\build\intermediates\library_manifest\debug\AndroidManifest.xml:2:1-11:12
MERGED from [:unimodules-permissions-interface] C:\Users\DELL\Desktop\RN\Agora\node_modules\unimodules-permissions-interface\android\build\intermediates\library_manifest\debug\AndroidManifest.xml:2:1-11:12
MERGED from [:unimodules-task-manager-interface] C:\Users\DELL\Desktop\RN\Agora\node_modules\unimodules-task-manager-interface\android\build\intermediates\library_manifest\debug\AndroidManifest.xml:2:1-11:12
MERGED from [:unimodules-app-loader] C:\Users\DELL\Desktop\RN\Agora\node_modules\unimodules-app-loader\android\build\intermediates\library_manifest\debug\AndroidManifest.xml:2:1-11:12
MERGED from [:unimodules-core] C:\Users\DELL\Desktop\RN\Agora\node_modules\@unimodules\core\android\build\intermediates\library_manifest\debug\AndroidManifest.xml:2:1-11:12
MERGED from [:unimodules-barcode-scanner-interface] C:\Users\DELL\Desktop\RN\Agora\node_modules\unimodules-barcode-scanner-interface\android\build\intermediates\library_manifest\debug\AndroidManifest.xml:2:1-11:12
MERGED from [:unimodules-camera-interface] C:\Users\DELL\Desktop\RN\Agora\node_modules\unimodules-camera-interface\android\build\intermediates\library_manifest\debug\AndroidManifest.xml:2:1-11:12
MERGED from [:unimodules-constants-interface] C:\Users\DELL\Desktop\RN\Agora\node_modules\unimodules-constants-interface\android\build\intermediates\library_manifest\debug\AndroidManifest.xml:2:1-11:12
MERGED from [:unimodules-face-detector-interface] C:\Users\DELL\Desktop\RN\Agora\node_modules\unimodules-face-detector-interface\android\build\intermediates\library_manifest\debug\AndroidManifest.xml:2:1-11:12
MERGED from [:unimodules-file-system-interface] C:\Users\DELL\Desktop\RN\Agora\node_modules\unimodules-file-system-interface\android\build\intermediates\library_manifest\debug\AndroidManifest.xml:2:1-11:12
MERGED from [:unimodules-font-interface] C:\Users\DELL\Desktop\RN\Agora\node_modules\unimodules-font-interface\android\build\intermediates\library_manifest\debug\AndroidManifest.xml:2:1-11:12
MERGED from [:unimodules-image-loader-interface] C:\Users\DELL\Desktop\RN\Agora\node_modules\unimodules-image-loader-interface\android\build\intermediates\library_manifest\debug\AndroidManifest.xml:2:1-11:12
MERGED from [:unimodules-sensors-interface] C:\Users\DELL\Desktop\RN\Agora\node_modules\unimodules-sensors-interface\android\build\intermediates\library_manifest\debug\AndroidManifest.xml:2:1-11:12
MERGED from [org.webkit:android-jsc:r245459] C:\Users\DELL\.gradle\caches\transforms-2\files-2.1\1ed26cdc1f47a6754ce1546799dd43a1\android-jsc-r245459\AndroidManifest.xml:2:1-11:12
MERGED from [:react-native-linear-gradient] C:\Users\DELL\Desktop\RN\Agora\node_modules\react-native-linear-gradient\android\build\intermediates\library_manifest\debug\AndroidManifest.xml:2:1-11:12
MERGED from [com.facebook.fresco:flipper:2.0.0] C:\Users\DELL\.gradle\caches\transforms-2\files-2.1\c180792e3f393fe4453d9c695595b3ef\flipper-2.0.0\AndroidManifest.xml:2:1-9:12
MERGED from [com.facebook.fresco:stetho:2.0.0] C:\Users\DELL\.gradle\caches\transforms-2\files-2.1\14649b8b71802f359f24d4f29dd55d6b\stetho-2.0.0\AndroidManifest.xml:2:1-9:12
MERGED from [com.facebook.fresco:fresco:2.0.0] C:\Users\DELL\.gradle\caches\transforms-2\files-2.1\83ef104dfb430f397d92e4759e916162\fresco-2.0.0\AndroidManifest.xml:2:1-9:12
MERGED from [com.facebook.fresco:imagepipeline-okhttp3:2.0.0] C:\Users\DELL\.gradle\caches\transforms-2\files-2.1\8547c58d8a189afcab5540191afe7320\imagepipeline-okhttp3-2.0.0\AndroidManifest.xml:2:1-9:12
MERGED from [com.facebook.fresco:drawee:2.0.0] C:\Users\DELL\.gradle\caches\transforms-2\files-2.1\ee0a0f1df6ec82b39c6bd94672681bab\drawee-2.0.0\AndroidManifest.xml:2:1-9:12
MERGED from [com.facebook.fresco:nativeimagefilters:2.0.0] C:\Users\DELL\.gradle\caches\transforms-2\files-2.1\fbdc3e33c0cf4fb6618b3fcc8d105591\nativeimagefilters-2.0.0\AndroidManifest.xml:2:1-9:12
MERGED from [com.facebook.fresco:imagepipeline:2.0.0] C:\Users\DELL\.gradle\caches\transforms-2\files-2.1\c3b7b12f448628b281d0d62b884cad68\imagepipeline-2.0.0\AndroidManifest.xml:2:1-9:12
MERGED from [com.facebook.fresco:nativeimagetranscoder:2.0.0] C:\Users\DELL\.gradle\caches\transforms-2\files-2.1\3b198830d922c7c36b5728d232b5dfa2\nativeimagetranscoder-2.0.0\AndroidManifest.xml:2:1-9:12
MERGED from [com.facebook.fresco:imagepipeline-base:2.0.0] C:\Users\DELL\.gradle\caches\transforms-2\files-2.1\8b504391aa72c1fccbfde5f9aecf364d\imagepipeline-base-2.0.0\AndroidManifest.xml:2:1-9:12
MERGED from [com.facebook.soloader:soloader:0.8.2] C:\Users\DELL\.gradle\caches\transforms-2\files-2.1\a682a4f61b53a5eb0b34ff17728f4b20\soloader-0.8.2\AndroidManifest.xml:2:1-13:12
MERGED from [com.google.android.material:material:1.1.0] C:\Users\DELL\.gradle\caches\transforms-2\files-2.1\7b4521e09033db39989053c4a0984cc2\material-1.1.0\AndroidManifest.xml:17:1-24:12
MERGED from [androidx.appcompat:appcompat:1.1.0] C:\Users\DELL\.gradle\caches\transforms-2\files-2.1\2b7e6ebaa515cd43f42fb356f0d1941c\appcompat-1.1.0\AndroidManifest.xml:17:1-24:12
MERGED from [androidx.appcompat:appcompat-resources:1.1.0] C:\Users\DELL\.gradle\caches\transforms-2\files-2.1\3eb43dcc83336306d77ef63b3402a327\appcompat-resources-1.1.0\AndroidManifest.xml:17:1-24:12
MERGED from [androidx.vectordrawable:vectordrawable-animated:1.1.0] C:\Users\DELL\.gradle\caches\transforms-2\files-2.1\edab9a506dbd8c78a6f1a18fc4eb209e\vectordrawable-animated-1.1.0\AndroidManifest.xml:17:1-24:12
MERGED from [androidx.interpolator:interpolator:1.0.0] C:\Users\DELL\.gradle\caches\transforms-2\files-2.1\3e974e7e51555c82be5b9fd468966b2b\interpolator-1.0.0\AndroidManifest.xml:17:1-22:12
MERGED from [androidx.viewpager2:viewpager2:1.0.0] C:\Users\DELL\.gradle\caches\transforms-2\files-2.1\33fa28bb10cd4d05c9c7b76910e2f1d7\viewpager2-1.0.0\AndroidManifest.xml:17:1-24:12
MERGED from [androidx.fragment:fragment:1.2.1] C:\Users\DELL\.gradle\caches\transforms-2\files-2.1\57896e3f8d3af1ea30640dfb96021293\fragment-1.2.1\AndroidManifest.xml:17:1-24:12
MERGED from [androidx.coordinatorlayout:coordinatorlayout:1.1.0] C:\Users\DELL\.gradle\caches\transforms-2\files-2.1\420bad76d144494602cd19d31fe9bd87\coordinatorlayout-1.1.0\AndroidManifest.xml:17:1-24:12
MERGED from [androidx.drawerlayout:drawerlayout:1.0.0] C:\Users\DELL\.gradle\caches\transforms-2\files-2.1\3d8e4bc7a6af7aacf11542b377d7496f\drawerlayout-1.0.0\AndroidManifest.xml:17:1-22:12
MERGED from [androidx.media:media:1.0.0] C:\Users\DELL\.gradle\caches\transforms-2\files-2.1\3d9ab8da87588fc427cbb77eaa356e9a\media-1.0.0\AndroidManifest.xml:17:1-22:12
MERGED from [androidx.legacy:legacy-support-core-utils:1.0.0] C:\Users\DELL\.gradle\caches\transforms-2\files-2.1\35cad5169a4745c0bfde91156540bc0d\legacy-support-core-utils-1.0.0\AndroidManifest.xml:17:1-22:12
MERGED from [androidx.viewpager:viewpager:1.0.0] C:\Users\DELL\.gradle\caches\transforms-2\files-2.1\b95a670ae7bd376b7902e15855cd0ee3\viewpager-1.0.0\AndroidManifest.xml:17:1-22:12
MERGED from [androidx.loader:loader:1.0.0] C:\Users\DELL\.gradle\caches\transforms-2\files-2.1\b3384283a73b276daf1e9a12cf250bb7\loader-1.0.0\AndroidManifest.xml:17:1-22:12
MERGED from [androidx.activity:activity:1.1.0] C:\Users\DELL\.gradle\caches\transforms-2\files-2.1\90a42a2ce697149cad235e929844c219\activity-1.1.0\AndroidManifest.xml:17:1-24:12
MERGED from [androidx.slidingpanelayout:slidingpanelayout:1.0.0] C:\Users\DELL\.gradle\caches\transforms-2\files-2.1\d12f3cd832a8f12aaa6c028e5d7796c3\slidingpanelayout-1.0.0\AndroidManifest.xml:17:1-22:12
MERGED from [androidx.recyclerview:recyclerview:1.1.0] C:\Users\DELL\.gradle\caches\transforms-2\files-2.1\24d6d583c434259890735095825ff497\recyclerview-1.1.0\AndroidManifest.xml:17:1-24:12
MERGED from [androidx.customview:customview:1.0.0] C:\Users\DELL\.gradle\caches\transforms-2\files-2.1\f1fdfdf03c30563a3eb92f6c5b5051ce\customview-1.0.0\AndroidManifest.xml:17:1-22:12
MERGED from [androidx.transition:transition:1.2.0] C:\Users\DELL\.gradle\caches\transforms-2\files-2.1\a25b01144be0941df6bba7293d8c0f17\transition-1.2.0\AndroidManifest.xml:17:1-24:12
MERGED from [androidx.vectordrawable:vectordrawable:1.1.0] C:\Users\DELL\.gradle\caches\transforms-2\files-2.1\e9872f4e302f432d4ed640cfa6c58eb6\vectordrawable-1.1.0\AndroidManifest.xml:17:1-24:12
MERGED from [androidx.asynclayoutinflater:asynclayoutinflater:1.0.0] C:\Users\DELL\.gradle\caches\transforms-2\files-2.1\d23cfac6fd44ce3e9a8c7b4e18ff2938\asynclayoutinflater-1.0.0\AndroidManifest.xml:17:1-22:12
MERGED from [androidx.core:core:1.1.0] C:\Users\DELL\.gradle\caches\transforms-2\files-2.1\4f509a65121478d6153615d7ef5b7c5f\core-1.1.0\AndroidManifest.xml:17:1-26:12
MERGED from [androidx.cursoradapter:cursoradapter:1.0.0] C:\Users\DELL\.gradle\caches\transforms-2\files-2.1\a20a73fc01b18d3fde5e258f4cd5ad79\cursoradapter-1.0.0\AndroidManifest.xml:17:1-22:12
MERGED from [androidx.versionedparcelable:versionedparcelable:1.1.0] C:\Users\DELL\.gradle\caches\transforms-2\files-2.1\ee4a69f4f726969bc5c4f11a1f23bd91\versionedparcelable-1.1.0\AndroidManifest.xml:17:1-27:12
MERGED from [androidx.lifecycle:lifecycle-viewmodel-savedstate:2.2.0] C:\Users\DELL\.gradle\caches\transforms-2\files-2.1\411bdbedc35f51d8e6b1c352c69abc9b\lifecycle-viewmodel-savedstate-2.2.0\AndroidManifest.xml:17:1-24:12
MERGED from [androidx.lifecycle:lifecycle-viewmodel:2.2.0] C:\Users\DELL\.gradle\caches\transforms-2\files-2.1\9aab56159b5d892e0145587101b1f3a4\lifecycle-viewmodel-2.2.0\AndroidManifest.xml:17:1-24:12
MERGED from [androidx.cardview:cardview:1.0.0] C:\Users\DELL\.gradle\caches\transforms-2\files-2.1\97914c6c2bf3a10c0dbc0cbbac018fe9\cardview-1.0.0\AndroidManifest.xml:17:1-22:12
MERGED from [androidx.documentfile:documentfile:1.0.0] C:\Users\DELL\.gradle\caches\transforms-2\files-2.1\71dd278aed309c95a240fbf4151d1363\documentfile-1.0.0\AndroidManifest.xml:17:1-22:12
MERGED from [androidx.localbroadcastmanager:localbroadcastmanager:1.0.0] C:\Users\DELL\.gradle\caches\transforms-2\files-2.1\dcbbc49e5cb5bb2aee330b22c38faa7c\localbroadcastmanager-1.0.0\AndroidManifest.xml:17:1-22:12
MERGED from [androidx.print:print:1.0.0] C:\Users\DELL\.gradle\caches\transforms-2\files-2.1\fcf7d5609a86ac86db550c02db072902\print-1.0.0\AndroidManifest.xml:17:1-22:12
MERGED from [androidx.lifecycle:lifecycle-runtime:2.2.0] C:\Users\DELL\.gradle\caches\transforms-2\files-2.1\d3986420b69bbcda2a26da93e8786bb5\lifecycle-runtime-2.2.0\AndroidManifest.xml:17:1-24:12
MERGED from [androidx.savedstate:savedstate:1.0.0] C:\Users\DELL\.gradle\caches\transforms-2\files-2.1\b7d3a1583ae97d0e70a1770a1993bbf1\savedstate-1.0.0\AndroidManifest.xml:17:1-24:12
MERGED from [androidx.lifecycle:lifecycle-livedata:2.0.0] C:\Users\DELL\.gradle\caches\transforms-2\files-2.1\21edf3c6b4f2eecf7b9eccd8e17daad5\lifecycle-livedata-2.0.0\AndroidManifest.xml:17:1-22:12
MERGED from [androidx.lifecycle:lifecycle-livedata-core:2.2.0] C:\Users\DELL\.gradle\caches\transforms-2\files-2.1\b9668bd4c5473f0298eda6562aec7b99\lifecycle-livedata-core-2.2.0\AndroidManifest.xml:17:1-24:12
MERGED from [androidx.arch.core:core-runtime:2.1.0] C:\Users\DELL\.gradle\caches\transforms-2\files-2.1\596fc679c0cd5d4e81c0bb73a34a2445\core-runtime-2.1.0\AndroidManifest.xml:17:1-24:12
MERGED from [io.nlopez.smartlocation:library:3.2.11] C:\Users\DELL\.gradle\caches\transforms-2\files-2.1\8d5343295a6719fd8475e9229ae4a78c\jetified-library-3.2.11\AndroidManifest.xml:2:1-30:12
MERGED from [com.facebook.soloader:annotation:0.8.2] C:\Users\DELL\.gradle\caches\transforms-2\files-2.1\562a4d899b3a7a711a398f7636c8c187\annotation-0.8.2\AndroidManifest.xml:2:1-13:12
MERGED from [com.facebook.fresco:fbcore:2.0.0] C:\Users\DELL\.gradle\caches\transforms-2\files-2.1\3a0037395823ada499c8383f00bd18b6\jetified-fbcore-2.0.0\AndroidManifest.xml:2:1-9:12
INJECTED from C:\Users\DELL\Desktop\RN\Agora\android\app\src\debug\AndroidManifest.xml:2:1-9:12
INJECTED from C:\Users\DELL\Desktop\RN\Agora\android\app\src\debug\AndroidManifest.xml:2:1-9:12
INJECTED from C:\Users\DELL\Desktop\RN\Agora\android\app\src\debug\AndroidManifest.xml:2:1-9:12
	package
		ADDED from C:\Users\DELL\Desktop\RN\Agora\android\app\src\main\AndroidManifest.xml:2:3-22
		INJECTED from C:\Users\DELL\Desktop\RN\Agora\android\app\src\main\AndroidManifest.xml
		ADDED from C:\Users\DELL\Desktop\RN\Agora\android\app\src\main\AndroidManifest.xml:2:3-22
		INJECTED from C:\Users\DELL\Desktop\RN\Agora\android\app\src\debug\AndroidManifest.xml
	android:versionName
		INJECTED from C:\Users\DELL\Desktop\RN\Agora\android\app\src\main\AndroidManifest.xml
		ADDED from C:\Users\DELL\Desktop\RN\Agora\android\app\src\main\AndroidManifest.xml:1:1-28:12
		INJECTED from C:\Users\DELL\Desktop\RN\Agora\android\app\src\debug\AndroidManifest.xml
	xmlns:tools
		ADDED from C:\Users\DELL\Desktop\RN\Agora\android\app\src\debug\AndroidManifest.xml:3:5-51
	android:versionCode
		INJECTED from C:\Users\DELL\Desktop\RN\Agora\android\app\src\main\AndroidManifest.xml
		ADDED from C:\Users\DELL\Desktop\RN\Agora\android\app\src\main\AndroidManifest.xml:1:1-28:12
		INJECTED from C:\Users\DELL\Desktop\RN\Agora\android\app\src\debug\AndroidManifest.xml
	xmlns:android
		ADDED from C:\Users\DELL\Desktop\RN\Agora\android\app\src\main\AndroidManifest.xml:1:11-69
uses-permission#android.permission.INTERNET
ADDED from C:\Users\DELL\Desktop\RN\Agora\android\app\src\main\AndroidManifest.xml:4:5-67
MERGED from [com.facebook.flipper:flipper:0.33.1] C:\Users\DELL\.gradle\caches\transforms-2\files-2.1\c8a1045385932b1ad9ab11a30d0e1a14\jetified-flipper-0.33.1\AndroidManifest.xml:15:5-67
MERGED from [com.facebook.flipper:flipper:0.33.1] C:\Users\DELL\.gradle\caches\transforms-2\files-2.1\c8a1045385932b1ad9ab11a30d0e1a14\jetified-flipper-0.33.1\AndroidManifest.xml:15:5-67
MERGED from [:expo-file-system] C:\Users\DELL\Desktop\RN\Agora\node_modules\expo-file-system\android\build\intermediates\library_manifest\debug\AndroidManifest.xml:12:5-67
MERGED from [:expo-file-system] C:\Users\DELL\Desktop\RN\Agora\node_modules\expo-file-system\android\build\intermediates\library_manifest\debug\AndroidManifest.xml:12:5-67
	android:name
		ADDED from C:\Users\DELL\Desktop\RN\Agora\android\app\src\main\AndroidManifest.xml:4:22-64
uses-permission#android.permission.ACCESS_FINE_LOCATION
ADDED from C:\Users\DELL\Desktop\RN\Agora\android\app\src\main\AndroidManifest.xml:5:5-79
MERGED from C:\Users\DELL\Desktop\RN\Agora\android\app\src\main\AndroidManifest.xml:5:5-79
MERGED from C:\Users\DELL\Desktop\RN\Agora\android\app\src\main\AndroidManifest.xml:5:5-79
MERGED from [:expo-location] C:\Users\DELL\Desktop\RN\Agora\node_modules\expo-location\android\build\intermediates\library_manifest\debug\AndroidManifest.xml:12:5-79
MERGED from [:expo-location] C:\Users\DELL\Desktop\RN\Agora\node_modules\expo-location\android\build\intermediates\library_manifest\debug\AndroidManifest.xml:12:5-79
MERGED from [io.nlopez.smartlocation:library:3.2.11] C:\Users\DELL\.gradle\caches\transforms-2\files-2.1\8d5343295a6719fd8475e9229ae4a78c\jetified-library-3.2.11\AndroidManifest.xml:14:5-79
MERGED from [io.nlopez.smartlocation:library:3.2.11] C:\Users\DELL\.gradle\caches\transforms-2\files-2.1\8d5343295a6719fd8475e9229ae4a78c\jetified-library-3.2.11\AndroidManifest.xml:14:5-79
	android:name
		ADDED from C:\Users\DELL\Desktop\RN\Agora\android\app\src\main\AndroidManifest.xml:5:22-76
application
ADDED from C:\Users\DELL\Desktop\RN\Agora\android\app\src\main\AndroidManifest.xml:7:5-26:19
MERGED from C:\Users\DELL\Desktop\RN\Agora\android\app\src\main\AndroidManifest.xml:7:5-26:19
MERGED from C:\Users\DELL\Desktop\RN\Agora\android\app\src\main\AndroidManifest.xml:7:5-26:19
MERGED from [:unimodules-react-native-adapter] C:\Users\DELL\Desktop\RN\Agora\node_modules\@unimodules\react-native-adapter\android\build\intermediates\library_manifest\debug\AndroidManifest.xml:11:5-15:19
MERGED from [:unimodules-react-native-adapter] C:\Users\DELL\Desktop\RN\Agora\node_modules\@unimodules\react-native-adapter\android\build\intermediates\library_manifest\debug\AndroidManifest.xml:11:5-15:19
MERGED from [com.facebook.react:react-native:0.62.2] C:\Users\DELL\.gradle\caches\transforms-2\files-2.1\247881c5ebaa71b8549e24fcc7f4ed36\jetified-react-native-0.62.2\AndroidManifest.xml:11:5-20
MERGED from [com.facebook.react:react-native:0.62.2] C:\Users\DELL\.gradle\caches\transforms-2\files-2.1\247881c5ebaa71b8549e24fcc7f4ed36\jetified-react-native-0.62.2\AndroidManifest.xml:11:5-20
MERGED from [:expo-file-system] C:\Users\DELL\Desktop\RN\Agora\node_modules\expo-file-system\android\build\intermediates\library_manifest\debug\AndroidManifest.xml:17:5-28:19
MERGED from [:expo-file-system] C:\Users\DELL\Desktop\RN\Agora\node_modules\expo-file-system\android\build\intermediates\library_manifest\debug\AndroidManifest.xml:17:5-28:19
MERGED from [:expo-location] C:\Users\DELL\Desktop\RN\Agora\node_modules\expo-location\android\build\intermediates\library_manifest\debug\AndroidManifest.xml:15:5-19:19
MERGED from [:expo-location] C:\Users\DELL\Desktop\RN\Agora\node_modules\expo-location\android\build\intermediates\library_manifest\debug\AndroidManifest.xml:15:5-19:19
MERGED from [com.google.android.gms:play-services-location:16.0.0] C:\Users\DELL\.gradle\caches\transforms-2\files-2.1\ce7a1b1aa3a6ed61751d67671f1264d5\jetified-play-services-location-16.0.0\AndroidManifest.xml:7:5-20
MERGED from [com.google.android.gms:play-services-location:16.0.0] C:\Users\DELL\.gradle\caches\transforms-2\files-2.1\ce7a1b1aa3a6ed61751d67671f1264d5\jetified-play-services-location-16.0.0\AndroidManifest.xml:7:5-20
MERGED from [com.google.android.gms:play-services-base:16.0.1] C:\Users\DELL\.gradle\caches\transforms-2\files-2.1\044d4383dc468efe572c879d3116c3d4\jetified-play-services-base-16.0.1\AndroidManifest.xml:22:5-27:19
MERGED from [com.google.android.gms:play-services-base:16.0.1] C:\Users\DELL\.gradle\caches\transforms-2\files-2.1\044d4383dc468efe572c879d3116c3d4\jetified-play-services-base-16.0.1\AndroidManifest.xml:22:5-27:19
MERGED from [com.google.android.gms:play-services-places-placereport:16.0.0] C:\Users\DELL\.gradle\caches\transforms-2\files-2.1\9319cbef6611937437246d14ffa15944\play-services-places-placereport-16.0.0\AndroidManifest.xml:22:5-20
MERGED from [com.google.android.gms:play-services-places-placereport:16.0.0] C:\Users\DELL\.gradle\caches\transforms-2\files-2.1\9319cbef6611937437246d14ffa15944\play-services-places-placereport-16.0.0\AndroidManifest.xml:22:5-20
MERGED from [com.google.android.gms:play-services-tasks:16.0.1] C:\Users\DELL\.gradle\caches\transforms-2\files-2.1\ef0d2aef256d0c6f954aedf0608c9a30\jetified-play-services-tasks-16.0.1\AndroidManifest.xml:7:5-20
MERGED from [com.google.android.gms:play-services-tasks:16.0.1] C:\Users\DELL\.gradle\caches\transforms-2\files-2.1\ef0d2aef256d0c6f954aedf0608c9a30\jetified-play-services-tasks-16.0.1\AndroidManifest.xml:7:5-20
MERGED from [com.google.android.gms:play-services-basement:16.0.1] C:\Users\DELL\.gradle\caches\transforms-2\files-2.1\49fb9a90647d7a5a8ff80d13dba19a73\jetified-play-services-basement-16.0.1\AndroidManifest.xml:22:5-26:19
MERGED from [com.google.android.gms:play-services-basement:16.0.1] C:\Users\DELL\.gradle\caches\transforms-2\files-2.1\49fb9a90647d7a5a8ff80d13dba19a73\jetified-play-services-basement-16.0.1\AndroidManifest.xml:22:5-26:19
MERGED from [com.facebook.soloader:soloader:0.8.2] C:\Users\DELL\.gradle\caches\transforms-2\files-2.1\a682a4f61b53a5eb0b34ff17728f4b20\soloader-0.8.2\AndroidManifest.xml:11:5-20
MERGED from [com.facebook.soloader:soloader:0.8.2] C:\Users\DELL\.gradle\caches\transforms-2\files-2.1\a682a4f61b53a5eb0b34ff17728f4b20\soloader-0.8.2\AndroidManifest.xml:11:5-20
MERGED from [com.google.android.material:material:1.1.0] C:\Users\DELL\.gradle\caches\transforms-2\files-2.1\7b4521e09033db39989053c4a0984cc2\material-1.1.0\AndroidManifest.xml:22:5-20
MERGED from [com.google.android.material:material:1.1.0] C:\Users\DELL\.gradle\caches\transforms-2\files-2.1\7b4521e09033db39989053c4a0984cc2\material-1.1.0\AndroidManifest.xml:22:5-20
MERGED from [androidx.core:core:1.1.0] C:\Users\DELL\.gradle\caches\transforms-2\files-2.1\4f509a65121478d6153615d7ef5b7c5f\core-1.1.0\AndroidManifest.xml:24:5-89
MERGED from [androidx.core:core:1.1.0] C:\Users\DELL\.gradle\caches\transforms-2\files-2.1\4f509a65121478d6153615d7ef5b7c5f\core-1.1.0\AndroidManifest.xml:24:5-89
MERGED from [androidx.versionedparcelable:versionedparcelable:1.1.0] C:\Users\DELL\.gradle\caches\transforms-2\files-2.1\ee4a69f4f726969bc5c4f11a1f23bd91\versionedparcelable-1.1.0\AndroidManifest.xml:24:5-25:19
MERGED from [androidx.versionedparcelable:versionedparcelable:1.1.0] C:\Users\DELL\.gradle\caches\transforms-2\files-2.1\ee4a69f4f726969bc5c4f11a1f23bd91\versionedparcelable-1.1.0\AndroidManifest.xml:24:5-25:19
MERGED from [io.nlopez.smartlocation:library:3.2.11] C:\Users\DELL\.gradle\caches\transforms-2\files-2.1\8d5343295a6719fd8475e9229ae4a78c\jetified-library-3.2.11\AndroidManifest.xml:18:5-28:19
MERGED from [io.nlopez.smartlocation:library:3.2.11] C:\Users\DELL\.gradle\caches\transforms-2\files-2.1\8d5343295a6719fd8475e9229ae4a78c\jetified-library-3.2.11\AndroidManifest.xml:18:5-28:19
MERGED from [com.facebook.soloader:annotation:0.8.2] C:\Users\DELL\.gradle\caches\transforms-2\files-2.1\562a4d899b3a7a711a398f7636c8c187\annotation-0.8.2\AndroidManifest.xml:11:5-20
MERGED from [com.facebook.soloader:annotation:0.8.2] C:\Users\DELL\.gradle\caches\transforms-2\files-2.1\562a4d899b3a7a711a398f7636c8c187\annotation-0.8.2\AndroidManifest.xml:11:5-20
	android:appComponentFactory
		ADDED from [androidx.core:core:1.1.0] C:\Users\DELL\.gradle\caches\transforms-2\files-2.1\4f509a65121478d6153615d7ef5b7c5f\core-1.1.0\AndroidManifest.xml:24:18-86
	android:label
		ADDED from C:\Users\DELL\Desktop\RN\Agora\android\app\src\main\AndroidManifest.xml:9:7-39
		ADDED from C:\Users\DELL\Desktop\RN\Agora\android\app\src\main\AndroidManifest.xml:9:7-39
	tools:ignore
		ADDED from C:\Users\DELL\Desktop\RN\Agora\android\app\src\debug\AndroidManifest.xml:8:75-114
	android:roundIcon
		ADDED from C:\Users\DELL\Desktop\RN\Agora\android\app\src\main\AndroidManifest.xml:11:7-52
		ADDED from C:\Users\DELL\Desktop\RN\Agora\android\app\src\main\AndroidManifest.xml:11:7-52
	tools:targetApi
		ADDED from C:\Users\DELL\Desktop\RN\Agora\android\app\src\debug\AndroidManifest.xml:8:54-74
	android:icon
		ADDED from C:\Users\DELL\Desktop\RN\Agora\android\app\src\main\AndroidManifest.xml:10:7-41
		ADDED from C:\Users\DELL\Desktop\RN\Agora\android\app\src\main\AndroidManifest.xml:10:7-41
	android:allowBackup
		ADDED from C:\Users\DELL\Desktop\RN\Agora\android\app\src\main\AndroidManifest.xml:12:7-34
		ADDED from C:\Users\DELL\Desktop\RN\Agora\android\app\src\main\AndroidManifest.xml:12:7-34
	android:theme
		ADDED from C:\Users\DELL\Desktop\RN\Agora\android\app\src\main\AndroidManifest.xml:13:7-38
		ADDED from C:\Users\DELL\Desktop\RN\Agora\android\app\src\main\AndroidManifest.xml:13:7-38
	android:usesCleartextTraffic
		ADDED from C:\Users\DELL\Desktop\RN\Agora\android\app\src\debug\AndroidManifest.xml:8:18-53
	android:name
		ADDED from C:\Users\DELL\Desktop\RN\Agora\android\app\src\main\AndroidManifest.xml:8:7-38
		ADDED from C:\Users\DELL\Desktop\RN\Agora\android\app\src\main\AndroidManifest.xml:8:7-38
activity#com.agora.MainActivity
ADDED from C:\Users\DELL\Desktop\RN\Agora\android\app\src\main\AndroidManifest.xml:14:7-24:18
	android:label
		ADDED from C:\Users\DELL\Desktop\RN\Agora\android\app\src\main\AndroidManifest.xml:16:9-41
	android:launchMode
		ADDED from C:\Users\DELL\Desktop\RN\Agora\android\app\src\main\AndroidManifest.xml:18:9-40
	android:windowSoftInputMode
		ADDED from C:\Users\DELL\Desktop\RN\Agora\android\app\src\main\AndroidManifest.xml:19:9-51
	android:configChanges
		ADDED from C:\Users\DELL\Desktop\RN\Agora\android\app\src\main\AndroidManifest.xml:17:9-86
	android:name
		ADDED from C:\Users\DELL\Desktop\RN\Agora\android\app\src\main\AndroidManifest.xml:15:9-37
intent-filter#action:name:android.intent.action.MAIN+category:name:android.intent.category.LAUNCHER
ADDED from C:\Users\DELL\Desktop\RN\Agora\android\app\src\main\AndroidManifest.xml:20:9-23:25
action#android.intent.action.MAIN
ADDED from C:\Users\DELL\Desktop\RN\Agora\android\app\src\main\AndroidManifest.xml:21:13-65
	android:name
		ADDED from C:\Users\DELL\Desktop\RN\Agora\android\app\src\main\AndroidManifest.xml:21:21-62
category#android.intent.category.LAUNCHER
ADDED from C:\Users\DELL\Desktop\RN\Agora\android\app\src\main\AndroidManifest.xml:22:13-73
	android:name
		ADDED from C:\Users\DELL\Desktop\RN\Agora\android\app\src\main\AndroidManifest.xml:22:23-70
activity#com.facebook.react.devsupport.DevSettingsActivity
ADDED from C:\Users\DELL\Desktop\RN\Agora\android\app\src\main\AndroidManifest.xml:25:7-84
	android:name
		ADDED from C:\Users\DELL\Desktop\RN\Agora\android\app\src\main\AndroidManifest.xml:25:17-81
uses-sdk
INJECTED from C:\Users\DELL\Desktop\RN\Agora\android\app\src\main\AndroidManifest.xml reason: use-sdk injection requested
INJECTED from C:\Users\DELL\Desktop\RN\Agora\android\app\src\main\AndroidManifest.xml
INJECTED from C:\Users\DELL\Desktop\RN\Agora\android\app\src\main\AndroidManifest.xml
MERGED from [com.facebook.flipper:flipper:0.33.1] C:\Users\DELL\.gradle\caches\transforms-2\files-2.1\c8a1045385932b1ad9ab11a30d0e1a14\jetified-flipper-0.33.1\AndroidManifest.xml:11:5-13:41
MERGED from [com.facebook.flipper:flipper:0.33.1] C:\Users\DELL\.gradle\caches\transforms-2\files-2.1\c8a1045385932b1ad9ab11a30d0e1a14\jetified-flipper-0.33.1\AndroidManifest.xml:11:5-13:41
MERGED from [com.facebook.flipper:flipper-network-plugin:0.33.1] C:\Users\DELL\.gradle\caches\transforms-2\files-2.1\fa9d249d56579007dba70f8ee4dd5b3f\flipper-network-plugin-0.33.1\AndroidManifest.xml:11:5-13:41
MERGED from [com.facebook.flipper:flipper-network-plugin:0.33.1] C:\Users\DELL\.gradle\caches\transforms-2\files-2.1\fa9d249d56579007dba70f8ee4dd5b3f\flipper-network-plugin-0.33.1\AndroidManifest.xml:11:5-13:41
MERGED from [com.facebook.flipper:flipper-fresco-plugin:0.33.1] C:\Users\DELL\.gradle\caches\transforms-2\files-2.1\5a1065d4748ae359265a740b2069d44b\flipper-fresco-plugin-0.33.1\AndroidManifest.xml:11:5-13:41
MERGED from [com.facebook.flipper:flipper-fresco-plugin:0.33.1] C:\Users\DELL\.gradle\caches\transforms-2\files-2.1\5a1065d4748ae359265a740b2069d44b\flipper-fresco-plugin-0.33.1\AndroidManifest.xml:11:5-13:41
MERGED from [:unimodules-react-native-adapter] C:\Users\DELL\Desktop\RN\Agora\node_modules\@unimodules\react-native-adapter\android\build\intermediates\library_manifest\debug\AndroidManifest.xml:7:5-9:41
MERGED from [:unimodules-react-native-adapter] C:\Users\DELL\Desktop\RN\Agora\node_modules\@unimodules\react-native-adapter\android\build\intermediates\library_manifest\debug\AndroidManifest.xml:7:5-9:41
MERGED from [:react-native-community_async-storage] C:\Users\DELL\Desktop\RN\Agora\node_modules\@react-native-community\async-storage\android\build\intermediates\library_manifest\debug\AndroidManifest.xml:5:5-7:41
MERGED from [:react-native-community_async-storage] C:\Users\DELL\Desktop\RN\Agora\node_modules\@react-native-community\async-storage\android\build\intermediates\library_manifest\debug\AndroidManifest.xml:5:5-7:41
MERGED from [:react-native-community_masked-view] C:\Users\DELL\Desktop\RN\Agora\node_modules\@react-native-community\masked-view\android\build\intermediates\library_manifest\debug\AndroidManifest.xml:5:5-7:41
MERGED from [:react-native-community_masked-view] C:\Users\DELL\Desktop\RN\Agora\node_modules\@react-native-community\masked-view\android\build\intermediates\library_manifest\debug\AndroidManifest.xml:5:5-7:41
MERGED from [:react-native-gesture-handler] C:\Users\DELL\Desktop\RN\Agora\node_modules\react-native-gesture-handler\android\build\intermediates\library_manifest\debug\AndroidManifest.xml:7:5-9:41
MERGED from [:react-native-gesture-handler] C:\Users\DELL\Desktop\RN\Agora\node_modules\react-native-gesture-handler\android\build\intermediates\library_manifest\debug\AndroidManifest.xml:7:5-9:41
MERGED from [:react-native-reanimated] C:\Users\DELL\Desktop\RN\Agora\node_modules\react-native-reanimated\android\build\intermediates\library_manifest\debug\AndroidManifest.xml:7:5-9:41
MERGED from [:react-native-reanimated] C:\Users\DELL\Desktop\RN\Agora\node_modules\react-native-reanimated\android\build\intermediates\library_manifest\debug\AndroidManifest.xml:7:5-9:41
MERGED from [:react-native-safe-area-context] C:\Users\DELL\Desktop\RN\Agora\node_modules\react-native-safe-area-context\android\build\intermediates\library_manifest\debug\AndroidManifest.xml:5:5-7:41
MERGED from [:react-native-safe-area-context] C:\Users\DELL\Desktop\RN\Agora\node_modules\react-native-safe-area-context\android\build\intermediates\library_manifest\debug\AndroidManifest.xml:5:5-7:41
MERGED from [:react-native-screens] C:\Users\DELL\Desktop\RN\Agora\node_modules\react-native-screens\android\build\intermediates\library_manifest\debug\AndroidManifest.xml:7:5-9:41
MERGED from [:react-native-screens] C:\Users\DELL\Desktop\RN\Agora\node_modules\react-native-screens\android\build\intermediates\library_manifest\debug\AndroidManifest.xml:7:5-9:41
MERGED from [:react-native-vector-icons] C:\Users\DELL\Desktop\RN\Agora\node_modules\react-native-vector-icons\android\build\intermediates\library_manifest\debug\AndroidManifest.xml:7:5-9:41
MERGED from [:react-native-vector-icons] C:\Users\DELL\Desktop\RN\Agora\node_modules\react-native-vector-icons\android\build\intermediates\library_manifest\debug\AndroidManifest.xml:7:5-9:41
MERGED from [com.facebook.react:react-native:0.62.2] C:\Users\DELL\.gradle\caches\transforms-2\files-2.1\247881c5ebaa71b8549e24fcc7f4ed36\jetified-react-native-0.62.2\AndroidManifest.xml:7:5-9:41
MERGED from [com.facebook.react:react-native:0.62.2] C:\Users\DELL\.gradle\caches\transforms-2\files-2.1\247881c5ebaa71b8549e24fcc7f4ed36\jetified-react-native-0.62.2\AndroidManifest.xml:7:5-9:41
MERGED from [:expo-file-system] C:\Users\DELL\Desktop\RN\Agora\node_modules\expo-file-system\android\build\intermediates\library_manifest\debug\AndroidManifest.xml:8:5-10:41
MERGED from [:expo-file-system] C:\Users\DELL\Desktop\RN\Agora\node_modules\expo-file-system\android\build\intermediates\library_manifest\debug\AndroidManifest.xml:8:5-10:41
MERGED from [:expo-location] C:\Users\DELL\Desktop\RN\Agora\node_modules\expo-location\android\build\intermediates\library_manifest\debug\AndroidManifest.xml:7:5-9:41
MERGED from [:expo-location] C:\Users\DELL\Desktop\RN\Agora\node_modules\expo-location\android\build\intermediates\library_manifest\debug\AndroidManifest.xml:7:5-9:41
MERGED from [com.google.android.gms:play-services-location:16.0.0] C:\Users\DELL\.gradle\caches\transforms-2\files-2.1\ce7a1b1aa3a6ed61751d67671f1264d5\jetified-play-services-location-16.0.0\AndroidManifest.xml:5:5-44
MERGED from [com.google.android.gms:play-services-location:16.0.0] C:\Users\DELL\.gradle\caches\transforms-2\files-2.1\ce7a1b1aa3a6ed61751d67671f1264d5\jetified-play-services-location-16.0.0\AndroidManifest.xml:5:5-44
MERGED from [com.google.android.gms:play-services-base:16.0.1] C:\Users\DELL\.gradle\caches\transforms-2\files-2.1\044d4383dc468efe572c879d3116c3d4\jetified-play-services-base-16.0.1\AndroidManifest.xml:20:5-44
MERGED from [com.google.android.gms:play-services-base:16.0.1] C:\Users\DELL\.gradle\caches\transforms-2\files-2.1\044d4383dc468efe572c879d3116c3d4\jetified-play-services-base-16.0.1\AndroidManifest.xml:20:5-44
MERGED from [com.google.android.gms:play-services-places-placereport:16.0.0] C:\Users\DELL\.gradle\caches\transforms-2\files-2.1\9319cbef6611937437246d14ffa15944\play-services-places-placereport-16.0.0\AndroidManifest.xml:20:5-44
MERGED from [com.google.android.gms:play-services-places-placereport:16.0.0] C:\Users\DELL\.gradle\caches\transforms-2\files-2.1\9319cbef6611937437246d14ffa15944\play-services-places-placereport-16.0.0\AndroidManifest.xml:20:5-44
MERGED from [com.google.android.gms:play-services-tasks:16.0.1] C:\Users\DELL\.gradle\caches\transforms-2\files-2.1\ef0d2aef256d0c6f954aedf0608c9a30\jetified-play-services-tasks-16.0.1\AndroidManifest.xml:5:5-44
MERGED from [com.google.android.gms:play-services-tasks:16.0.1] C:\Users\DELL\.gradle\caches\transforms-2\files-2.1\ef0d2aef256d0c6f954aedf0608c9a30\jetified-play-services-tasks-16.0.1\AndroidManifest.xml:5:5-44
MERGED from [com.google.android.gms:play-services-basement:16.0.1] C:\Users\DELL\.gradle\caches\transforms-2\files-2.1\49fb9a90647d7a5a8ff80d13dba19a73\jetified-play-services-basement-16.0.1\AndroidManifest.xml:20:5-44
MERGED from [com.google.android.gms:play-services-basement:16.0.1] C:\Users\DELL\.gradle\caches\transforms-2\files-2.1\49fb9a90647d7a5a8ff80d13dba19a73\jetified-play-services-basement-16.0.1\AndroidManifest.xml:20:5-44
MERGED from [androidx.legacy:legacy-support-v4:1.0.0] C:\Users\DELL\.gradle\caches\transforms-2\files-2.1\a430ff083c3ccb9e6346144a5dd2ced9\legacy-support-v4-1.0.0\AndroidManifest.xml:20:5-44
MERGED from [androidx.legacy:legacy-support-v4:1.0.0] C:\Users\DELL\.gradle\caches\transforms-2\files-2.1\a430ff083c3ccb9e6346144a5dd2ced9\legacy-support-v4-1.0.0\AndroidManifest.xml:20:5-44
MERGED from [androidx.legacy:legacy-support-core-ui:1.0.0] C:\Users\DELL\.gradle\caches\transforms-2\files-2.1\a0cc55542e7f80901507e4e652970d1e\legacy-support-core-ui-1.0.0\AndroidManifest.xml:20:5-44
MERGED from [androidx.legacy:legacy-support-core-ui:1.0.0] C:\Users\DELL\.gradle\caches\transforms-2\files-2.1\a0cc55542e7f80901507e4e652970d1e\legacy-support-core-ui-1.0.0\AndroidManifest.xml:20:5-44
MERGED from [androidx.swiperefreshlayout:swiperefreshlayout:1.0.0] C:\Users\DELL\.gradle\caches\transforms-2\files-2.1\055a171d10c43231a2795117ecd4c3fd\swiperefreshlayout-1.0.0\AndroidManifest.xml:20:5-44
MERGED from [androidx.swiperefreshlayout:swiperefreshlayout:1.0.0] C:\Users\DELL\.gradle\caches\transforms-2\files-2.1\055a171d10c43231a2795117ecd4c3fd\swiperefreshlayout-1.0.0\AndroidManifest.xml:20:5-44
MERGED from [:expo-app-loader-provider] C:\Users\DELL\Desktop\RN\Agora\node_modules\expo-app-loader-provider\android\build\intermediates\library_manifest\debug\AndroidManifest.xml:7:5-9:41
MERGED from [:expo-app-loader-provider] C:\Users\DELL\Desktop\RN\Agora\node_modules\expo-app-loader-provider\android\build\intermediates\library_manifest\debug\AndroidManifest.xml:7:5-9:41
MERGED from [:expo-constants] C:\Users\DELL\Desktop\RN\Agora\node_modules\expo-constants\android\build\intermediates\library_manifest\debug\AndroidManifest.xml:7:5-9:41
MERGED from [:expo-constants] C:\Users\DELL\Desktop\RN\Agora\node_modules\expo-constants\android\build\intermediates\library_manifest\debug\AndroidManifest.xml:7:5-9:41
MERGED from [:expo-error-recovery] C:\Users\DELL\Desktop\RN\Agora\node_modules\expo-error-recovery\android\build\intermediates\library_manifest\debug\AndroidManifest.xml:7:5-9:41
MERGED from [:expo-error-recovery] C:\Users\DELL\Desktop\RN\Agora\node_modules\expo-error-recovery\android\build\intermediates\library_manifest\debug\AndroidManifest.xml:7:5-9:41
MERGED from [:expo-font] C:\Users\DELL\Desktop\RN\Agora\node_modules\expo-font\android\build\intermediates\library_manifest\debug\AndroidManifest.xml:7:5-9:41
MERGED from [:expo-font] C:\Users\DELL\Desktop\RN\Agora\node_modules\expo-font\android\build\intermediates\library_manifest\debug\AndroidManifest.xml:7:5-9:41
MERGED from [:expo-keep-awake] C:\Users\DELL\Desktop\RN\Agora\node_modules\expo-keep-awake\android\build\intermediates\library_manifest\debug\AndroidManifest.xml:7:5-9:41
MERGED from [:expo-keep-awake] C:\Users\DELL\Desktop\RN\Agora\node_modules\expo-keep-awake\android\build\intermediates\library_manifest\debug\AndroidManifest.xml:7:5-9:41
MERGED from [:expo-linear-gradient] C:\Users\DELL\Desktop\RN\Agora\node_modules\expo-linear-gradient\android\build\intermediates\library_manifest\debug\AndroidManifest.xml:7:5-9:41
MERGED from [:expo-linear-gradient] C:\Users\DELL\Desktop\RN\Agora\node_modules\expo-linear-gradient\android\build\intermediates\library_manifest\debug\AndroidManifest.xml:7:5-9:41
MERGED from [:expo-permissions] C:\Users\DELL\Desktop\RN\Agora\node_modules\expo-permissions\android\build\intermediates\library_manifest\debug\AndroidManifest.xml:7:5-9:41
MERGED from [:expo-permissions] C:\Users\DELL\Desktop\RN\Agora\node_modules\expo-permissions\android\build\intermediates\library_manifest\debug\AndroidManifest.xml:7:5-9:41
MERGED from [:expo-splash-screen] C:\Users\DELL\Desktop\RN\Agora\node_modules\expo-splash-screen\android\build\intermediates\library_manifest\debug\AndroidManifest.xml:7:5-9:41
MERGED from [:expo-splash-screen] C:\Users\DELL\Desktop\RN\Agora\node_modules\expo-splash-screen\android\build\intermediates\library_manifest\debug\AndroidManifest.xml:7:5-9:41
MERGED from [:expo-sqlite] C:\Users\DELL\Desktop\RN\Agora\node_modules\expo-sqlite\android\build\intermediates\library_manifest\debug\AndroidManifest.xml:7:5-9:41
MERGED from [:expo-sqlite] C:\Users\DELL\Desktop\RN\Agora\node_modules\expo-sqlite\android\build\intermediates\library_manifest\debug\AndroidManifest.xml:7:5-9:41
MERGED from [:unimodules-permissions-interface] C:\Users\DELL\Desktop\RN\Agora\node_modules\unimodules-permissions-interface\android\build\intermediates\library_manifest\debug\AndroidManifest.xml:7:5-9:41
MERGED from [:unimodules-permissions-interface] C:\Users\DELL\Desktop\RN\Agora\node_modules\unimodules-permissions-interface\android\build\intermediates\library_manifest\debug\AndroidManifest.xml:7:5-9:41
MERGED from [:unimodules-task-manager-interface] C:\Users\DELL\Desktop\RN\Agora\node_modules\unimodules-task-manager-interface\android\build\intermediates\library_manifest\debug\AndroidManifest.xml:7:5-9:41
MERGED from [:unimodules-task-manager-interface] C:\Users\DELL\Desktop\RN\Agora\node_modules\unimodules-task-manager-interface\android\build\intermediates\library_manifest\debug\AndroidManifest.xml:7:5-9:41
MERGED from [:unimodules-app-loader] C:\Users\DELL\Desktop\RN\Agora\node_modules\unimodules-app-loader\android\build\intermediates\library_manifest\debug\AndroidManifest.xml:7:5-9:41
MERGED from [:unimodules-app-loader] C:\Users\DELL\Desktop\RN\Agora\node_modules\unimodules-app-loader\android\build\intermediates\library_manifest\debug\AndroidManifest.xml:7:5-9:41
MERGED from [:unimodules-core] C:\Users\DELL\Desktop\RN\Agora\node_modules\@unimodules\core\android\build\intermediates\library_manifest\debug\AndroidManifest.xml:7:5-9:41
MERGED from [:unimodules-core] C:\Users\DELL\Desktop\RN\Agora\node_modules\@unimodules\core\android\build\intermediates\library_manifest\debug\AndroidManifest.xml:7:5-9:41
MERGED from [:unimodules-barcode-scanner-interface] C:\Users\DELL\Desktop\RN\Agora\node_modules\unimodules-barcode-scanner-interface\android\build\intermediates\library_manifest\debug\AndroidManifest.xml:7:5-9:41
MERGED from [:unimodules-barcode-scanner-interface] C:\Users\DELL\Desktop\RN\Agora\node_modules\unimodules-barcode-scanner-interface\android\build\intermediates\library_manifest\debug\AndroidManifest.xml:7:5-9:41
MERGED from [:unimodules-camera-interface] C:\Users\DELL\Desktop\RN\Agora\node_modules\unimodules-camera-interface\android\build\intermediates\library_manifest\debug\AndroidManifest.xml:7:5-9:41
MERGED from [:unimodules-camera-interface] C:\Users\DELL\Desktop\RN\Agora\node_modules\unimodules-camera-interface\android\build\intermediates\library_manifest\debug\AndroidManifest.xml:7:5-9:41
MERGED from [:unimodules-constants-interface] C:\Users\DELL\Desktop\RN\Agora\node_modules\unimodules-constants-interface\android\build\intermediates\library_manifest\debug\AndroidManifest.xml:7:5-9:41
MERGED from [:unimodules-constants-interface] C:\Users\DELL\Desktop\RN\Agora\node_modules\unimodules-constants-interface\android\build\intermediates\library_manifest\debug\AndroidManifest.xml:7:5-9:41
MERGED from [:unimodules-face-detector-interface] C:\Users\DELL\Desktop\RN\Agora\node_modules\unimodules-face-detector-interface\android\build\intermediates\library_manifest\debug\AndroidManifest.xml:7:5-9:41
MERGED from [:unimodules-face-detector-interface] C:\Users\DELL\Desktop\RN\Agora\node_modules\unimodules-face-detector-interface\android\build\intermediates\library_manifest\debug\AndroidManifest.xml:7:5-9:41
MERGED from [:unimodules-file-system-interface] C:\Users\DELL\Desktop\RN\Agora\node_modules\unimodules-file-system-interface\android\build\intermediates\library_manifest\debug\AndroidManifest.xml:7:5-9:41
MERGED from [:unimodules-file-system-interface] C:\Users\DELL\Desktop\RN\Agora\node_modules\unimodules-file-system-interface\android\build\intermediates\library_manifest\debug\AndroidManifest.xml:7:5-9:41
MERGED from [:unimodules-font-interface] C:\Users\DELL\Desktop\RN\Agora\node_modules\unimodules-font-interface\android\build\intermediates\library_manifest\debug\AndroidManifest.xml:7:5-9:41
MERGED from [:unimodules-font-interface] C:\Users\DELL\Desktop\RN\Agora\node_modules\unimodules-font-interface\android\build\intermediates\library_manifest\debug\AndroidManifest.xml:7:5-9:41
MERGED from [:unimodules-image-loader-interface] C:\Users\DELL\Desktop\RN\Agora\node_modules\unimodules-image-loader-interface\android\build\intermediates\library_manifest\debug\AndroidManifest.xml:7:5-9:41
MERGED from [:unimodules-image-loader-interface] C:\Users\DELL\Desktop\RN\Agora\node_modules\unimodules-image-loader-interface\android\build\intermediates\library_manifest\debug\AndroidManifest.xml:7:5-9:41
MERGED from [:unimodules-sensors-interface] C:\Users\DELL\Desktop\RN\Agora\node_modules\unimodules-sensors-interface\android\build\intermediates\library_manifest\debug\AndroidManifest.xml:7:5-9:41
MERGED from [:unimodules-sensors-interface] C:\Users\DELL\Desktop\RN\Agora\node_modules\unimodules-sensors-interface\android\build\intermediates\library_manifest\debug\AndroidManifest.xml:7:5-9:41
MERGED from [org.webkit:android-jsc:r245459] C:\Users\DELL\.gradle\caches\transforms-2\files-2.1\1ed26cdc1f47a6754ce1546799dd43a1\android-jsc-r245459\AndroidManifest.xml:7:5-9:41
MERGED from [org.webkit:android-jsc:r245459] C:\Users\DELL\.gradle\caches\transforms-2\files-2.1\1ed26cdc1f47a6754ce1546799dd43a1\android-jsc-r245459\AndroidManifest.xml:7:5-9:41
MERGED from [:react-native-linear-gradient] C:\Users\DELL\Desktop\RN\Agora\node_modules\react-native-linear-gradient\android\build\intermediates\library_manifest\debug\AndroidManifest.xml:7:5-9:41
MERGED from [:react-native-linear-gradient] C:\Users\DELL\Desktop\RN\Agora\node_modules\react-native-linear-gradient\android\build\intermediates\library_manifest\debug\AndroidManifest.xml:7:5-9:41
MERGED from [com.facebook.fresco:flipper:2.0.0] C:\Users\DELL\.gradle\caches\transforms-2\files-2.1\c180792e3f393fe4453d9c695595b3ef\flipper-2.0.0\AndroidManifest.xml:5:5-7:41
MERGED from [com.facebook.fresco:flipper:2.0.0] C:\Users\DELL\.gradle\caches\transforms-2\files-2.1\c180792e3f393fe4453d9c695595b3ef\flipper-2.0.0\AndroidManifest.xml:5:5-7:41
MERGED from [com.facebook.fresco:stetho:2.0.0] C:\Users\DELL\.gradle\caches\transforms-2\files-2.1\14649b8b71802f359f24d4f29dd55d6b\stetho-2.0.0\AndroidManifest.xml:5:5-7:41
MERGED from [com.facebook.fresco:stetho:2.0.0] C:\Users\DELL\.gradle\caches\transforms-2\files-2.1\14649b8b71802f359f24d4f29dd55d6b\stetho-2.0.0\AndroidManifest.xml:5:5-7:41
MERGED from [com.facebook.fresco:fresco:2.0.0] C:\Users\DELL\.gradle\caches\transforms-2\files-2.1\83ef104dfb430f397d92e4759e916162\fresco-2.0.0\AndroidManifest.xml:5:5-7:41
MERGED from [com.facebook.fresco:fresco:2.0.0] C:\Users\DELL\.gradle\caches\transforms-2\files-2.1\83ef104dfb430f397d92e4759e916162\fresco-2.0.0\AndroidManifest.xml:5:5-7:41
MERGED from [com.facebook.fresco:imagepipeline-okhttp3:2.0.0] C:\Users\DELL\.gradle\caches\transforms-2\files-2.1\8547c58d8a189afcab5540191afe7320\imagepipeline-okhttp3-2.0.0\AndroidManifest.xml:5:5-7:41
MERGED from [com.facebook.fresco:imagepipeline-okhttp3:2.0.0] C:\Users\DELL\.gradle\caches\transforms-2\files-2.1\8547c58d8a189afcab5540191afe7320\imagepipeline-okhttp3-2.0.0\AndroidManifest.xml:5:5-7:41
MERGED from [com.facebook.fresco:drawee:2.0.0] C:\Users\DELL\.gradle\caches\transforms-2\files-2.1\ee0a0f1df6ec82b39c6bd94672681bab\drawee-2.0.0\AndroidManifest.xml:5:5-7:41
MERGED from [com.facebook.fresco:drawee:2.0.0] C:\Users\DELL\.gradle\caches\transforms-2\files-2.1\ee0a0f1df6ec82b39c6bd94672681bab\drawee-2.0.0\AndroidManifest.xml:5:5-7:41
MERGED from [com.facebook.fresco:nativeimagefilters:2.0.0] C:\Users\DELL\.gradle\caches\transforms-2\files-2.1\fbdc3e33c0cf4fb6618b3fcc8d105591\nativeimagefilters-2.0.0\AndroidManifest.xml:5:5-7:41
MERGED from [com.facebook.fresco:nativeimagefilters:2.0.0] C:\Users\DELL\.gradle\caches\transforms-2\files-2.1\fbdc3e33c0cf4fb6618b3fcc8d105591\nativeimagefilters-2.0.0\AndroidManifest.xml:5:5-7:41
MERGED from [com.facebook.fresco:imagepipeline:2.0.0] C:\Users\DELL\.gradle\caches\transforms-2\files-2.1\c3b7b12f448628b281d0d62b884cad68\imagepipeline-2.0.0\AndroidManifest.xml:5:5-7:41
MERGED from [com.facebook.fresco:imagepipeline:2.0.0] C:\Users\DELL\.gradle\caches\transforms-2\files-2.1\c3b7b12f448628b281d0d62b884cad68\imagepipeline-2.0.0\AndroidManifest.xml:5:5-7:41
MERGED from [com.facebook.fresco:nativeimagetranscoder:2.0.0] C:\Users\DELL\.gradle\caches\transforms-2\files-2.1\3b198830d922c7c36b5728d232b5dfa2\nativeimagetranscoder-2.0.0\AndroidManifest.xml:5:5-7:41
MERGED from [com.facebook.fresco:nativeimagetranscoder:2.0.0] C:\Users\DELL\.gradle\caches\transforms-2\files-2.1\3b198830d922c7c36b5728d232b5dfa2\nativeimagetranscoder-2.0.0\AndroidManifest.xml:5:5-7:41
MERGED from [com.facebook.fresco:imagepipeline-base:2.0.0] C:\Users\DELL\.gradle\caches\transforms-2\files-2.1\8b504391aa72c1fccbfde5f9aecf364d\imagepipeline-base-2.0.0\AndroidManifest.xml:5:5-7:41
MERGED from [com.facebook.fresco:imagepipeline-base:2.0.0] C:\Users\DELL\.gradle\caches\transforms-2\files-2.1\8b504391aa72c1fccbfde5f9aecf364d\imagepipeline-base-2.0.0\AndroidManifest.xml:5:5-7:41
MERGED from [com.facebook.soloader:soloader:0.8.2] C:\Users\DELL\.gradle\caches\transforms-2\files-2.1\a682a4f61b53a5eb0b34ff17728f4b20\soloader-0.8.2\AndroidManifest.xml:7:5-9:41
MERGED from [com.facebook.soloader:soloader:0.8.2] C:\Users\DELL\.gradle\caches\transforms-2\files-2.1\a682a4f61b53a5eb0b34ff17728f4b20\soloader-0.8.2\AndroidManifest.xml:7:5-9:41
MERGED from [com.google.android.material:material:1.1.0] C:\Users\DELL\.gradle\caches\transforms-2\files-2.1\7b4521e09033db39989053c4a0984cc2\material-1.1.0\AndroidManifest.xml:20:5-44
MERGED from [com.google.android.material:material:1.1.0] C:\Users\DELL\.gradle\caches\transforms-2\files-2.1\7b4521e09033db39989053c4a0984cc2\material-1.1.0\AndroidManifest.xml:20:5-44
MERGED from [androidx.appcompat:appcompat:1.1.0] C:\Users\DELL\.gradle\caches\transforms-2\files-2.1\2b7e6ebaa515cd43f42fb356f0d1941c\appcompat-1.1.0\AndroidManifest.xml:20:5-22:41
MERGED from [androidx.appcompat:appcompat:1.1.0] C:\Users\DELL\.gradle\caches\transforms-2\files-2.1\2b7e6ebaa515cd43f42fb356f0d1941c\appcompat-1.1.0\AndroidManifest.xml:20:5-22:41
MERGED from [androidx.appcompat:appcompat-resources:1.1.0] C:\Users\DELL\.gradle\caches\transforms-2\files-2.1\3eb43dcc83336306d77ef63b3402a327\appcompat-resources-1.1.0\AndroidManifest.xml:20:5-22:41
MERGED from [androidx.appcompat:appcompat-resources:1.1.0] C:\Users\DELL\.gradle\caches\transforms-2\files-2.1\3eb43dcc83336306d77ef63b3402a327\appcompat-resources-1.1.0\AndroidManifest.xml:20:5-22:41
MERGED from [androidx.vectordrawable:vectordrawable-animated:1.1.0] C:\Users\DELL\.gradle\caches\transforms-2\files-2.1\edab9a506dbd8c78a6f1a18fc4eb209e\vectordrawable-animated-1.1.0\AndroidManifest.xml:20:5-22:41
MERGED from [androidx.vectordrawable:vectordrawable-animated:1.1.0] C:\Users\DELL\.gradle\caches\transforms-2\files-2.1\edab9a506dbd8c78a6f1a18fc4eb209e\vectordrawable-animated-1.1.0\AndroidManifest.xml:20:5-22:41
MERGED from [androidx.interpolator:interpolator:1.0.0] C:\Users\DELL\.gradle\caches\transforms-2\files-2.1\3e974e7e51555c82be5b9fd468966b2b\interpolator-1.0.0\AndroidManifest.xml:20:5-44
MERGED from [androidx.interpolator:interpolator:1.0.0] C:\Users\DELL\.gradle\caches\transforms-2\files-2.1\3e974e7e51555c82be5b9fd468966b2b\interpolator-1.0.0\AndroidManifest.xml:20:5-44
MERGED from [androidx.viewpager2:viewpager2:1.0.0] C:\Users\DELL\.gradle\caches\transforms-2\files-2.1\33fa28bb10cd4d05c9c7b76910e2f1d7\viewpager2-1.0.0\AndroidManifest.xml:20:5-22:41
MERGED from [androidx.viewpager2:viewpager2:1.0.0] C:\Users\DELL\.gradle\caches\transforms-2\files-2.1\33fa28bb10cd4d05c9c7b76910e2f1d7\viewpager2-1.0.0\AndroidManifest.xml:20:5-22:41
MERGED from [androidx.fragment:fragment:1.2.1] C:\Users\DELL\.gradle\caches\transforms-2\files-2.1\57896e3f8d3af1ea30640dfb96021293\fragment-1.2.1\AndroidManifest.xml:20:5-22:41
MERGED from [androidx.fragment:fragment:1.2.1] C:\Users\DELL\.gradle\caches\transforms-2\files-2.1\57896e3f8d3af1ea30640dfb96021293\fragment-1.2.1\AndroidManifest.xml:20:5-22:41
MERGED from [androidx.coordinatorlayout:coordinatorlayout:1.1.0] C:\Users\DELL\.gradle\caches\transforms-2\files-2.1\420bad76d144494602cd19d31fe9bd87\coordinatorlayout-1.1.0\AndroidManifest.xml:20:5-22:41
MERGED from [androidx.coordinatorlayout:coordinatorlayout:1.1.0] C:\Users\DELL\.gradle\caches\transforms-2\files-2.1\420bad76d144494602cd19d31fe9bd87\coordinatorlayout-1.1.0\AndroidManifest.xml:20:5-22:41
MERGED from [androidx.drawerlayout:drawerlayout:1.0.0] C:\Users\DELL\.gradle\caches\transforms-2\files-2.1\3d8e4bc7a6af7aacf11542b377d7496f\drawerlayout-1.0.0\AndroidManifest.xml:20:5-44
MERGED from [androidx.drawerlayout:drawerlayout:1.0.0] C:\Users\DELL\.gradle\caches\transforms-2\files-2.1\3d8e4bc7a6af7aacf11542b377d7496f\drawerlayout-1.0.0\AndroidManifest.xml:20:5-44
MERGED from [androidx.media:media:1.0.0] C:\Users\DELL\.gradle\caches\transforms-2\files-2.1\3d9ab8da87588fc427cbb77eaa356e9a\media-1.0.0\AndroidManifest.xml:20:5-44
MERGED from [androidx.media:media:1.0.0] C:\Users\DELL\.gradle\caches\transforms-2\files-2.1\3d9ab8da87588fc427cbb77eaa356e9a\media-1.0.0\AndroidManifest.xml:20:5-44
MERGED from [androidx.legacy:legacy-support-core-utils:1.0.0] C:\Users\DELL\.gradle\caches\transforms-2\files-2.1\35cad5169a4745c0bfde91156540bc0d\legacy-support-core-utils-1.0.0\AndroidManifest.xml:20:5-44
MERGED from [androidx.legacy:legacy-support-core-utils:1.0.0] C:\Users\DELL\.gradle\caches\transforms-2\files-2.1\35cad5169a4745c0bfde91156540bc0d\legacy-support-core-utils-1.0.0\AndroidManifest.xml:20:5-44
MERGED from [androidx.viewpager:viewpager:1.0.0] C:\Users\DELL\.gradle\caches\transforms-2\files-2.1\b95a670ae7bd376b7902e15855cd0ee3\viewpager-1.0.0\AndroidManifest.xml:20:5-44
MERGED from [androidx.viewpager:viewpager:1.0.0] C:\Users\DELL\.gradle\caches\transforms-2\files-2.1\b95a670ae7bd376b7902e15855cd0ee3\viewpager-1.0.0\AndroidManifest.xml:20:5-44
MERGED from [androidx.loader:loader:1.0.0] C:\Users\DELL\.gradle\caches\transforms-2\files-2.1\b3384283a73b276daf1e9a12cf250bb7\loader-1.0.0\AndroidManifest.xml:20:5-44
MERGED from [androidx.loader:loader:1.0.0] C:\Users\DELL\.gradle\caches\transforms-2\files-2.1\b3384283a73b276daf1e9a12cf250bb7\loader-1.0.0\AndroidManifest.xml:20:5-44
MERGED from [androidx.activity:activity:1.1.0] C:\Users\DELL\.gradle\caches\transforms-2\files-2.1\90a42a2ce697149cad235e929844c219\activity-1.1.0\AndroidManifest.xml:20:5-22:41
MERGED from [androidx.activity:activity:1.1.0] C:\Users\DELL\.gradle\caches\transforms-2\files-2.1\90a42a2ce697149cad235e929844c219\activity-1.1.0\AndroidManifest.xml:20:5-22:41
MERGED from [androidx.slidingpanelayout:slidingpanelayout:1.0.0] C:\Users\DELL\.gradle\caches\transforms-2\files-2.1\d12f3cd832a8f12aaa6c028e5d7796c3\slidingpanelayout-1.0.0\AndroidManifest.xml:20:5-44
MERGED from [androidx.slidingpanelayout:slidingpanelayout:1.0.0] C:\Users\DELL\.gradle\caches\transforms-2\files-2.1\d12f3cd832a8f12aaa6c028e5d7796c3\slidingpanelayout-1.0.0\AndroidManifest.xml:20:5-44
MERGED from [androidx.recyclerview:recyclerview:1.1.0] C:\Users\DELL\.gradle\caches\transforms-2\files-2.1\24d6d583c434259890735095825ff497\recyclerview-1.1.0\AndroidManifest.xml:20:5-22:41
MERGED from [androidx.recyclerview:recyclerview:1.1.0] C:\Users\DELL\.gradle\caches\transforms-2\files-2.1\24d6d583c434259890735095825ff497\recyclerview-1.1.0\AndroidManifest.xml:20:5-22:41
MERGED from [androidx.customview:customview:1.0.0] C:\Users\DELL\.gradle\caches\transforms-2\files-2.1\f1fdfdf03c30563a3eb92f6c5b5051ce\customview-1.0.0\AndroidManifest.xml:20:5-44
MERGED from [androidx.customview:customview:1.0.0] C:\Users\DELL\.gradle\caches\transforms-2\files-2.1\f1fdfdf03c30563a3eb92f6c5b5051ce\customview-1.0.0\AndroidManifest.xml:20:5-44
MERGED from [androidx.transition:transition:1.2.0] C:\Users\DELL\.gradle\caches\transforms-2\files-2.1\a25b01144be0941df6bba7293d8c0f17\transition-1.2.0\AndroidManifest.xml:20:5-22:41
MERGED from [androidx.transition:transition:1.2.0] C:\Users\DELL\.gradle\caches\transforms-2\files-2.1\a25b01144be0941df6bba7293d8c0f17\transition-1.2.0\AndroidManifest.xml:20:5-22:41
MERGED from [androidx.vectordrawable:vectordrawable:1.1.0] C:\Users\DELL\.gradle\caches\transforms-2\files-2.1\e9872f4e302f432d4ed640cfa6c58eb6\vectordrawable-1.1.0\AndroidManifest.xml:20:5-22:41
MERGED from [androidx.vectordrawable:vectordrawable:1.1.0] C:\Users\DELL\.gradle\caches\transforms-2\files-2.1\e9872f4e302f432d4ed640cfa6c58eb6\vectordrawable-1.1.0\AndroidManifest.xml:20:5-22:41
MERGED from [androidx.asynclayoutinflater:asynclayoutinflater:1.0.0] C:\Users\DELL\.gradle\caches\transforms-2\files-2.1\d23cfac6fd44ce3e9a8c7b4e18ff2938\asynclayoutinflater-1.0.0\AndroidManifest.xml:20:5-44
MERGED from [androidx.asynclayoutinflater:asynclayoutinflater:1.0.0] C:\Users\DELL\.gradle\caches\transforms-2\files-2.1\d23cfac6fd44ce3e9a8c7b4e18ff2938\asynclayoutinflater-1.0.0\AndroidManifest.xml:20:5-44
MERGED from [androidx.core:core:1.1.0] C:\Users\DELL\.gradle\caches\transforms-2\files-2.1\4f509a65121478d6153615d7ef5b7c5f\core-1.1.0\AndroidManifest.xml:20:5-22:41
MERGED from [androidx.core:core:1.1.0] C:\Users\DELL\.gradle\caches\transforms-2\files-2.1\4f509a65121478d6153615d7ef5b7c5f\core-1.1.0\AndroidManifest.xml:20:5-22:41
MERGED from [androidx.cursoradapter:cursoradapter:1.0.0] C:\Users\DELL\.gradle\caches\transforms-2\files-2.1\a20a73fc01b18d3fde5e258f4cd5ad79\cursoradapter-1.0.0\AndroidManifest.xml:20:5-44
MERGED from [androidx.cursoradapter:cursoradapter:1.0.0] C:\Users\DELL\.gradle\caches\transforms-2\files-2.1\a20a73fc01b18d3fde5e258f4cd5ad79\cursoradapter-1.0.0\AndroidManifest.xml:20:5-44
MERGED from [androidx.versionedparcelable:versionedparcelable:1.1.0] C:\Users\DELL\.gradle\caches\transforms-2\files-2.1\ee4a69f4f726969bc5c4f11a1f23bd91\versionedparcelable-1.1.0\AndroidManifest.xml:20:5-22:41
MERGED from [androidx.versionedparcelable:versionedparcelable:1.1.0] C:\Users\DELL\.gradle\caches\transforms-2\files-2.1\ee4a69f4f726969bc5c4f11a1f23bd91\versionedparcelable-1.1.0\AndroidManifest.xml:20:5-22:41
MERGED from [androidx.lifecycle:lifecycle-viewmodel-savedstate:2.2.0] C:\Users\DELL\.gradle\caches\transforms-2\files-2.1\411bdbedc35f51d8e6b1c352c69abc9b\lifecycle-viewmodel-savedstate-2.2.0\AndroidManifest.xml:20:5-22:41
MERGED from [androidx.lifecycle:lifecycle-viewmodel-savedstate:2.2.0] C:\Users\DELL\.gradle\caches\transforms-2\files-2.1\411bdbedc35f51d8e6b1c352c69abc9b\lifecycle-viewmodel-savedstate-2.2.0\AndroidManifest.xml:20:5-22:41
MERGED from [androidx.lifecycle:lifecycle-viewmodel:2.2.0] C:\Users\DELL\.gradle\caches\transforms-2\files-2.1\9aab56159b5d892e0145587101b1f3a4\lifecycle-viewmodel-2.2.0\AndroidManifest.xml:20:5-22:41
MERGED from [androidx.lifecycle:lifecycle-viewmodel:2.2.0] C:\Users\DELL\.gradle\caches\transforms-2\files-2.1\9aab56159b5d892e0145587101b1f3a4\lifecycle-viewmodel-2.2.0\AndroidManifest.xml:20:5-22:41
MERGED from [androidx.cardview:cardview:1.0.0] C:\Users\DELL\.gradle\caches\transforms-2\files-2.1\97914c6c2bf3a10c0dbc0cbbac018fe9\cardview-1.0.0\AndroidManifest.xml:20:5-44
MERGED from [androidx.cardview:cardview:1.0.0] C:\Users\DELL\.gradle\caches\transforms-2\files-2.1\97914c6c2bf3a10c0dbc0cbbac018fe9\cardview-1.0.0\AndroidManifest.xml:20:5-44
MERGED from [androidx.documentfile:documentfile:1.0.0] C:\Users\DELL\.gradle\caches\transforms-2\files-2.1\71dd278aed309c95a240fbf4151d1363\documentfile-1.0.0\AndroidManifest.xml:20:5-44
MERGED from [androidx.documentfile:documentfile:1.0.0] C:\Users\DELL\.gradle\caches\transforms-2\files-2.1\71dd278aed309c95a240fbf4151d1363\documentfile-1.0.0\AndroidManifest.xml:20:5-44
MERGED from [androidx.localbroadcastmanager:localbroadcastmanager:1.0.0] C:\Users\DELL\.gradle\caches\transforms-2\files-2.1\dcbbc49e5cb5bb2aee330b22c38faa7c\localbroadcastmanager-1.0.0\AndroidManifest.xml:20:5-44
MERGED from [androidx.localbroadcastmanager:localbroadcastmanager:1.0.0] C:\Users\DELL\.gradle\caches\transforms-2\files-2.1\dcbbc49e5cb5bb2aee330b22c38faa7c\localbroadcastmanager-1.0.0\AndroidManifest.xml:20:5-44
MERGED from [androidx.print:print:1.0.0] C:\Users\DELL\.gradle\caches\transforms-2\files-2.1\fcf7d5609a86ac86db550c02db072902\print-1.0.0\AndroidManifest.xml:20:5-44
MERGED from [androidx.print:print:1.0.0] C:\Users\DELL\.gradle\caches\transforms-2\files-2.1\fcf7d5609a86ac86db550c02db072902\print-1.0.0\AndroidManifest.xml:20:5-44
MERGED from [androidx.lifecycle:lifecycle-runtime:2.2.0] C:\Users\DELL\.gradle\caches\transforms-2\files-2.1\d3986420b69bbcda2a26da93e8786bb5\lifecycle-runtime-2.2.0\AndroidManifest.xml:20:5-22:41
MERGED from [androidx.lifecycle:lifecycle-runtime:2.2.0] C:\Users\DELL\.gradle\caches\transforms-2\files-2.1\d3986420b69bbcda2a26da93e8786bb5\lifecycle-runtime-2.2.0\AndroidManifest.xml:20:5-22:41
MERGED from [androidx.savedstate:savedstate:1.0.0] C:\Users\DELL\.gradle\caches\transforms-2\files-2.1\b7d3a1583ae97d0e70a1770a1993bbf1\savedstate-1.0.0\AndroidManifest.xml:20:5-22:41
MERGED from [androidx.savedstate:savedstate:1.0.0] C:\Users\DELL\.gradle\caches\transforms-2\files-2.1\b7d3a1583ae97d0e70a1770a1993bbf1\savedstate-1.0.0\AndroidManifest.xml:20:5-22:41
MERGED from [androidx.lifecycle:lifecycle-livedata:2.0.0] C:\Users\DELL\.gradle\caches\transforms-2\files-2.1\21edf3c6b4f2eecf7b9eccd8e17daad5\lifecycle-livedata-2.0.0\AndroidManifest.xml:20:5-44
MERGED from [androidx.lifecycle:lifecycle-livedata:2.0.0] C:\Users\DELL\.gradle\caches\transforms-2\files-2.1\21edf3c6b4f2eecf7b9eccd8e17daad5\lifecycle-livedata-2.0.0\AndroidManifest.xml:20:5-44
MERGED from [androidx.lifecycle:lifecycle-livedata-core:2.2.0] C:\Users\DELL\.gradle\caches\transforms-2\files-2.1\b9668bd4c5473f0298eda6562aec7b99\lifecycle-livedata-core-2.2.0\AndroidManifest.xml:20:5-22:41
MERGED from [androidx.lifecycle:lifecycle-livedata-core:2.2.0] C:\Users\DELL\.gradle\caches\transforms-2\files-2.1\b9668bd4c5473f0298eda6562aec7b99\lifecycle-livedata-core-2.2.0\AndroidManifest.xml:20:5-22:41
MERGED from [androidx.arch.core:core-runtime:2.1.0] C:\Users\DELL\.gradle\caches\transforms-2\files-2.1\596fc679c0cd5d4e81c0bb73a34a2445\core-runtime-2.1.0\AndroidManifest.xml:20:5-22:41
MERGED from [androidx.arch.core:core-runtime:2.1.0] C:\Users\DELL\.gradle\caches\transforms-2\files-2.1\596fc679c0cd5d4e81c0bb73a34a2445\core-runtime-2.1.0\AndroidManifest.xml:20:5-22:41
MERGED from [io.nlopez.smartlocation:library:3.2.11] C:\Users\DELL\.gradle\caches\transforms-2\files-2.1\8d5343295a6719fd8475e9229ae4a78c\jetified-library-3.2.11\AndroidManifest.xml:8:5-10:41
MERGED from [io.nlopez.smartlocation:library:3.2.11] C:\Users\DELL\.gradle\caches\transforms-2\files-2.1\8d5343295a6719fd8475e9229ae4a78c\jetified-library-3.2.11\AndroidManifest.xml:8:5-10:41
MERGED from [com.facebook.soloader:annotation:0.8.2] C:\Users\DELL\.gradle\caches\transforms-2\files-2.1\562a4d899b3a7a711a398f7636c8c187\annotation-0.8.2\AndroidManifest.xml:7:5-9:41
MERGED from [com.facebook.soloader:annotation:0.8.2] C:\Users\DELL\.gradle\caches\transforms-2\files-2.1\562a4d899b3a7a711a398f7636c8c187\annotation-0.8.2\AndroidManifest.xml:7:5-9:41
MERGED from [com.facebook.fresco:fbcore:2.0.0] C:\Users\DELL\.gradle\caches\transforms-2\files-2.1\3a0037395823ada499c8383f00bd18b6\jetified-fbcore-2.0.0\AndroidManifest.xml:5:5-7:41
MERGED from [com.facebook.fresco:fbcore:2.0.0] C:\Users\DELL\.gradle\caches\transforms-2\files-2.1\3a0037395823ada499c8383f00bd18b6\jetified-fbcore-2.0.0\AndroidManifest.xml:5:5-7:41
INJECTED from C:\Users\DELL\Desktop\RN\Agora\android\app\src\debug\AndroidManifest.xml
INJECTED from C:\Users\DELL\Desktop\RN\Agora\android\app\src\debug\AndroidManifest.xml
	android:targetSdkVersion
		INJECTED from C:\Users\DELL\Desktop\RN\Agora\android\app\src\main\AndroidManifest.xml
		INJECTED from C:\Users\DELL\Desktop\RN\Agora\android\app\src\debug\AndroidManifest.xml
	android:minSdkVersion
		INJECTED from C:\Users\DELL\Desktop\RN\Agora\android\app\src\main\AndroidManifest.xml
		INJECTED from C:\Users\DELL\Desktop\RN\Agora\android\app\src\debug\AndroidManifest.xml
uses-permission#android.permission.SYSTEM_ALERT_WINDOW
ADDED from C:\Users\DELL\Desktop\RN\Agora\android\app\src\debug\AndroidManifest.xml:5:5-77
	android:name
		ADDED from C:\Users\DELL\Desktop\RN\Agora\android\app\src\debug\AndroidManifest.xml:5:22-75
uses-permission#android.permission.ACCESS_WIFI_STATE
ADDED from [com.facebook.flipper:flipper:0.33.1] C:\Users\DELL\.gradle\caches\transforms-2\files-2.1\c8a1045385932b1ad9ab11a30d0e1a14\jetified-flipper-0.33.1\AndroidManifest.xml:16:5-76
	android:name
		ADDED from [com.facebook.flipper:flipper:0.33.1] C:\Users\DELL\.gradle\caches\transforms-2\files-2.1\c8a1045385932b1ad9ab11a30d0e1a14\jetified-flipper-0.33.1\AndroidManifest.xml:16:22-73
meta-data#org.unimodules.core.AppLoader#react-native-headless
ADDED from [:unimodules-react-native-adapter] C:\Users\DELL\Desktop\RN\Agora\node_modules\@unimodules\react-native-adapter\android\build\intermediates\library_manifest\debug\AndroidManifest.xml:12:9-14:91
	android:value
		ADDED from [:unimodules-react-native-adapter] C:\Users\DELL\Desktop\RN\Agora\node_modules\@unimodules\react-native-adapter\android\build\intermediates\library_manifest\debug\AndroidManifest.xml:14:13-88
	android:name
		ADDED from [:unimodules-react-native-adapter] C:\Users\DELL\Desktop\RN\Agora\node_modules\@unimodules\react-native-adapter\android\build\intermediates\library_manifest\debug\AndroidManifest.xml:13:13-79
uses-permission#android.permission.WRITE_EXTERNAL_STORAGE
ADDED from [:expo-file-system] C:\Users\DELL\Desktop\RN\Agora\node_modules\expo-file-system\android\build\intermediates\library_manifest\debug\AndroidManifest.xml:13:5-81
	android:name
		ADDED from [:expo-file-system] C:\Users\DELL\Desktop\RN\Agora\node_modules\expo-file-system\android\build\intermediates\library_manifest\debug\AndroidManifest.xml:13:22-78
uses-permission#android.permission.READ_EXTERNAL_STORAGE
ADDED from [:expo-file-system] C:\Users\DELL\Desktop\RN\Agora\node_modules\expo-file-system\android\build\intermediates\library_manifest\debug\AndroidManifest.xml:14:5-80
	android:name
		ADDED from [:expo-file-system] C:\Users\DELL\Desktop\RN\Agora\node_modules\expo-file-system\android\build\intermediates\library_manifest\debug\AndroidManifest.xml:14:22-77
uses-permission#android.permission.STORAGE
ADDED from [:expo-file-system] C:\Users\DELL\Desktop\RN\Agora\node_modules\expo-file-system\android\build\intermediates\library_manifest\debug\AndroidManifest.xml:15:5-66
	android:name
		ADDED from [:expo-file-system] C:\Users\DELL\Desktop\RN\Agora\node_modules\expo-file-system\android\build\intermediates\library_manifest\debug\AndroidManifest.xml:15:22-63
provider#expo.modules.filesystem.FileSystemFileProvider
ADDED from [:expo-file-system] C:\Users\DELL\Desktop\RN\Agora\node_modules\expo-file-system\android\build\intermediates\library_manifest\debug\AndroidManifest.xml:18:9-27:20
	android:grantUriPermissions
		ADDED from [:expo-file-system] C:\Users\DELL\Desktop\RN\Agora\node_modules\expo-file-system\android\build\intermediates\library_manifest\debug\AndroidManifest.xml:22:13-47
	android:authorities
		ADDED from [:expo-file-system] C:\Users\DELL\Desktop\RN\Agora\node_modules\expo-file-system\android\build\intermediates\library_manifest\debug\AndroidManifest.xml:20:13-74
	android:exported
		ADDED from [:expo-file-system] C:\Users\DELL\Desktop\RN\Agora\node_modules\expo-file-system\android\build\intermediates\library_manifest\debug\AndroidManifest.xml:21:13-37
	tools:replace
		ADDED from [:expo-file-system] C:\Users\DELL\Desktop\RN\Agora\node_modules\expo-file-system\android\build\intermediates\library_manifest\debug\AndroidManifest.xml:23:13-48
	android:name
		ADDED from [:expo-file-system] C:\Users\DELL\Desktop\RN\Agora\node_modules\expo-file-system\android\build\intermediates\library_manifest\debug\AndroidManifest.xml:19:13-74
meta-data#android.support.FILE_PROVIDER_PATHS
ADDED from [:expo-file-system] C:\Users\DELL\Desktop\RN\Agora\node_modules\expo-file-system\android\build\intermediates\library_manifest\debug\AndroidManifest.xml:24:13-26:70
	android:resource
		ADDED from [:expo-file-system] C:\Users\DELL\Desktop\RN\Agora\node_modules\expo-file-system\android\build\intermediates\library_manifest\debug\AndroidManifest.xml:26:17-67
	android:name
		ADDED from [:expo-file-system] C:\Users\DELL\Desktop\RN\Agora\node_modules\expo-file-system\android\build\intermediates\library_manifest\debug\AndroidManifest.xml:25:17-67
uses-permission#android.permission.ACCESS_COARSE_LOCATION
ADDED from [:expo-location] C:\Users\DELL\Desktop\RN\Agora\node_modules\expo-location\android\build\intermediates\library_manifest\debug\AndroidManifest.xml:11:5-81
MERGED from [io.nlopez.smartlocation:library:3.2.11] C:\Users\DELL\.gradle\caches\transforms-2\files-2.1\8d5343295a6719fd8475e9229ae4a78c\jetified-library-3.2.11\AndroidManifest.xml:12:5-81
MERGED from [io.nlopez.smartlocation:library:3.2.11] C:\Users\DELL\.gradle\caches\transforms-2\files-2.1\8d5343295a6719fd8475e9229ae4a78c\jetified-library-3.2.11\AndroidManifest.xml:12:5-81
	android:name
		ADDED from [:expo-location] C:\Users\DELL\Desktop\RN\Agora\node_modules\expo-location\android\build\intermediates\library_manifest\debug\AndroidManifest.xml:11:22-78
uses-permission#android.permission.FOREGROUND_SERVICE
ADDED from [:expo-location] C:\Users\DELL\Desktop\RN\Agora\node_modules\expo-location\android\build\intermediates\library_manifest\debug\AndroidManifest.xml:13:5-77
	android:name
		ADDED from [:expo-location] C:\Users\DELL\Desktop\RN\Agora\node_modules\expo-location\android\build\intermediates\library_manifest\debug\AndroidManifest.xml:13:22-74
service#expo.modules.location.services.LocationTaskService
ADDED from [:expo-location] C:\Users\DELL\Desktop\RN\Agora\node_modules\expo-location\android\build\intermediates\library_manifest\debug\AndroidManifest.xml:16:9-18:40
	android:exported
		ADDED from [:expo-location] C:\Users\DELL\Desktop\RN\Agora\node_modules\expo-location\android\build\intermediates\library_manifest\debug\AndroidManifest.xml:18:13-37
	android:name
		ADDED from [:expo-location] C:\Users\DELL\Desktop\RN\Agora\node_modules\expo-location\android\build\intermediates\library_manifest\debug\AndroidManifest.xml:17:13-78
activity#com.google.android.gms.common.api.GoogleApiActivity
ADDED from [com.google.android.gms:play-services-base:16.0.1] C:\Users\DELL\.gradle\caches\transforms-2\files-2.1\044d4383dc468efe572c879d3116c3d4\jetified-play-services-base-16.0.1\AndroidManifest.xml:23:9-26:75
	android:exported
		ADDED from [com.google.android.gms:play-services-base:16.0.1] C:\Users\DELL\.gradle\caches\transforms-2\files-2.1\044d4383dc468efe572c879d3116c3d4\jetified-play-services-base-16.0.1\AndroidManifest.xml:25:13-37
	android:theme
		ADDED from [com.google.android.gms:play-services-base:16.0.1] C:\Users\DELL\.gradle\caches\transforms-2\files-2.1\044d4383dc468efe572c879d3116c3d4\jetified-play-services-base-16.0.1\AndroidManifest.xml:26:13-72
	android:name
		ADDED from [com.google.android.gms:play-services-base:16.0.1] C:\Users\DELL\.gradle\caches\transforms-2\files-2.1\044d4383dc468efe572c879d3116c3d4\jetified-play-services-base-16.0.1\AndroidManifest.xml:24:13-79
meta-data#com.google.android.gms.version
ADDED from [com.google.android.gms:play-services-basement:16.0.1] C:\Users\DELL\.gradle\caches\transforms-2\files-2.1\49fb9a90647d7a5a8ff80d13dba19a73\jetified-play-services-basement-16.0.1\AndroidManifest.xml:23:9-25:69
	android:value
		ADDED from [com.google.android.gms:play-services-basement:16.0.1] C:\Users\DELL\.gradle\caches\transforms-2\files-2.1\49fb9a90647d7a5a8ff80d13dba19a73\jetified-play-services-basement-16.0.1\AndroidManifest.xml:25:13-66
	android:name
		ADDED from [com.google.android.gms:play-services-basement:16.0.1] C:\Users\DELL\.gradle\caches\transforms-2\files-2.1\49fb9a90647d7a5a8ff80d13dba19a73\jetified-play-services-basement-16.0.1\AndroidManifest.xml:24:13-58
uses-permission#android.permission.ACCESS_NETWORK_STATE
ADDED from [io.nlopez.smartlocation:library:3.2.11] C:\Users\DELL\.gradle\caches\transforms-2\files-2.1\8d5343295a6719fd8475e9229ae4a78c\jetified-library-3.2.11\AndroidManifest.xml:13:5-79
	android:name
		ADDED from [io.nlopez.smartlocation:library:3.2.11] C:\Users\DELL\.gradle\caches\transforms-2\files-2.1\8d5343295a6719fd8475e9229ae4a78c\jetified-library-3.2.11\AndroidManifest.xml:13:22-76
uses-permission#com.google.android.providers.gsf.permission.READ_GSERVICES
ADDED from [io.nlopez.smartlocation:library:3.2.11] C:\Users\DELL\.gradle\caches\transforms-2\files-2.1\8d5343295a6719fd8475e9229ae4a78c\jetified-library-3.2.11\AndroidManifest.xml:15:5-98
	android:name
		ADDED from [io.nlopez.smartlocation:library:3.2.11] C:\Users\DELL\.gradle\caches\transforms-2\files-2.1\8d5343295a6719fd8475e9229ae4a78c\jetified-library-3.2.11\AndroidManifest.xml:15:22-95
uses-permission#com.google.android.gms.permission.ACTIVITY_RECOGNITION
ADDED from [io.nlopez.smartlocation:library:3.2.11] C:\Users\DELL\.gradle\caches\transforms-2\files-2.1\8d5343295a6719fd8475e9229ae4a78c\jetified-library-3.2.11\AndroidManifest.xml:16:5-94
	android:name
		ADDED from [io.nlopez.smartlocation:library:3.2.11] C:\Users\DELL\.gradle\caches\transforms-2\files-2.1\8d5343295a6719fd8475e9229ae4a78c\jetified-library-3.2.11\AndroidManifest.xml:16:22-91
service#io.nlopez.smartlocation.activity.providers.ActivityGooglePlayServicesProvider$ActivityRecognitionService
ADDED from [io.nlopez.smartlocation:library:3.2.11] C:\Users\DELL\.gradle\caches\transforms-2\files-2.1\8d5343295a6719fd8475e9229ae4a78c\jetified-library-3.2.11\AndroidManifest.xml:19:9-21:40
	android:exported
		ADDED from [io.nlopez.smartlocation:library:3.2.11] C:\Users\DELL\.gradle\caches\transforms-2\files-2.1\8d5343295a6719fd8475e9229ae4a78c\jetified-library-3.2.11\AndroidManifest.xml:21:13-37
	android:name
		ADDED from [io.nlopez.smartlocation:library:3.2.11] C:\Users\DELL\.gradle\caches\transforms-2\files-2.1\8d5343295a6719fd8475e9229ae4a78c\jetified-library-3.2.11\AndroidManifest.xml:20:13-132
service#io.nlopez.smartlocation.geofencing.providers.GeofencingGooglePlayServicesProvider$GeofencingService
ADDED from [io.nlopez.smartlocation:library:3.2.11] C:\Users\DELL\.gradle\caches\transforms-2\files-2.1\8d5343295a6719fd8475e9229ae4a78c\jetified-library-3.2.11\AndroidManifest.xml:22:9-24:40
	android:exported
		ADDED from [io.nlopez.smartlocation:library:3.2.11] C:\Users\DELL\.gradle\caches\transforms-2\files-2.1\8d5343295a6719fd8475e9229ae4a78c\jetified-library-3.2.11\AndroidManifest.xml:24:13-37
	android:name
		ADDED from [io.nlopez.smartlocation:library:3.2.11] C:\Users\DELL\.gradle\caches\transforms-2\files-2.1\8d5343295a6719fd8475e9229ae4a78c\jetified-library-3.2.11\AndroidManifest.xml:23:13-127
service#io.nlopez.smartlocation.geocoding.providers.AndroidGeocodingProvider$AndroidGeocodingService
ADDED from [io.nlopez.smartlocation:library:3.2.11] C:\Users\DELL\.gradle\caches\transforms-2\files-2.1\8d5343295a6719fd8475e9229ae4a78c\jetified-library-3.2.11\AndroidManifest.xml:25:9-27:40
	android:exported
		ADDED from [io.nlopez.smartlocation:library:3.2.11] C:\Users\DELL\.gradle\caches\transforms-2\files-2.1\8d5343295a6719fd8475e9229ae4a78c\jetified-library-3.2.11\AndroidManifest.xml:27:13-37
	android:name
		ADDED from [io.nlopez.smartlocation:library:3.2.11] C:\Users\DELL\.gradle\caches\transforms-2\files-2.1\8d5343295a6719fd8475e9229ae4a78c\jetified-library-3.2.11\AndroidManifest.xml:26:13-120
